﻿#{Document}
КоробкиПодбора
Нет
#{DeclaredItems}
{Item.СкладСерия};{Item.АлкоКод};{Item.АлкоНаим};{Item.ProductId};{Item.DeclaredQuantity}
СКУ-1;0015545000002458847;;0b4389ad-c7d9-46f4-809f-e2f1d9920b1a;20
;0015545000002458847;;0b4389ad-c7d9-46f4-809f-e2f1d9920b1a;50
СКУ-2;0031518000001292816;;;65
;0031518000001292816;;;100
#{КоробкиЕГАИС}
{Item.АлкоКод};{Item.Коробка};{Item.Палета};{Item.ЕАН};{Item.КодНоменклатуры};{Item.ФА};{Item.ФБ};{Item.ДатаРозлива};{Item.СкладСерия};{Item.АлкоНаим};{Item.Количество}
0031518000001292816;(00)077777779999991445;(00)177777779999999903;;912c5718-8b35-450b-80ef-1b0afee09f1d;;;;СКУ-2;ВИСКМИКС  напиток винный вкус виски и меда  0,5л 14%;25
0031518000001292816;(00)077777779999991446;(00)177777779999999903;;912c5718-8b35-450b-80ef-1b0afee09f1d;;;;СКУ-2;ВИСКМИКС  напиток винный вкус виски и меда  0,5л 14%;25
0031518000001292816;(00)077777779999991447;(00)177777779999999903;;912c5718-8b35-450b-80ef-1b0afee09f1d;;;;СКУ-2;ВИСКМИКС  напиток винный вкус виски и меда  0,5л 14%;25
0031518000001292816;(00)077777779999991448;(00)177777779999999903;;912c5718-8b35-450b-80ef-1b0afee09f1d;;;;СКУ-2;ВИСКМИКС  напиток винный вкус виски и меда  0,5л 14%;25
0031518000001292816;(00)077777779999991449;(00)177777779999999903;;912c5718-8b35-450b-80ef-1b0afee09f1d;;;;СКУ-2;ВИСКМИКС  напиток винный вкус виски и меда  0,5л 14%;25
0031518000001292816;(00)077777779999991450;(00)177777779999999903;;912c5718-8b35-450b-80ef-1b0afee09f1d;;;;СКУ-2;ВИСКМИКС  напиток винный вкус виски и меда  0,5л 14%;25
0031518000001292816;(00)077777779999991451;(00)177777779999999903;;912c5718-8b35-450b-80ef-1b0afee09f1d;;;;СКУ-2;ВИСКМИКС  напиток винный вкус виски и меда  0,5л 14%;25
0031518000001292816;(00)077777779999991452;(00)177777779999999903;;912c5718-8b35-450b-80ef-1b0afee09f1d;;;;СКУ-2;ВИСКМИКС  напиток винный вкус виски и меда  0,5л 14%;25
0031518000001292816;(00)077777779999991453;(00)177777779999999903;;912c5718-8b35-450b-80ef-1b0afee09f1d;;;;СКУ-2;ВИСКМИКС  напиток винный вкус виски и меда  0,5л 14%;25
0031518000001292816;(00)077777779999991454;(00)177777779999999903;;912c5718-8b35-450b-80ef-1b0afee09f1d;;;;СКУ-2;ВИСКМИКС  напиток винный вкус виски и меда  0,5л 14%;25
#{БутылкиЕГАИС}
{Item.АлкоПДФ};{Item.АлкоКод};{Item.Коробка};{Item.Палета};{Item.ДМ};{Item.ЕАН};{Item.КодНоменклатуры};{Item.ФА};{Item.ФБ};{Item.ДатаРозлива};{Item.СкладСерия};{Item.АлкоНаим}
84N000008MC75BA4HZK0BSS509180010330969FEH7YZZ068ZEKHAHYEKJU1S44VSNXQ;0031518000001292816;(00)077777779999991445;(00)177777779999999903;;;912c5718-8b35-450b-80ef-1b0afee09f1d;;;;СКУ-2;ВИСКМИКС  напиток винный вкус виски и меда  0,5л 14%
91N000008MC75BA4HZK0BSS509180010330647FEH7YZZ068ZEKHAHYEKJU1S44VSNXQ;0031518000001292816;(00)077777779999991445;(00)177777779999999903;;;912c5718-8b35-450b-80ef-1b0afee09f1d;;;;СКУ-2;ВИСКМИКС  напиток винный вкус виски и меда  0,5л 14%
22N000008MC75BA4HZK0BSS509180010330228FEH7YZZ068ZEKHAHYEKJU1S44VSNXQ;0031518000001292816;(00)077777779999991445;(00)177777779999999903;;;912c5718-8b35-450b-80ef-1b0afee09f1d;;;;СКУ-2;ВИСКМИКС  напиток винный вкус виски и меда  0,5л 14%
56N000008MC75BA4HZK0BSS509180010330366FEH7YZZ068ZEKHAHYEKJU1S44VSNXQ;0031518000001292816;(00)077777779999991445;(00)177777779999999903;;;912c5718-8b35-450b-80ef-1b0afee09f1d;;;;СКУ-2;ВИСКМИКС  напиток винный вкус виски и меда  0,5л 14%
35N000008MC75BA4HZK0BSS509180010330482FEH7YZZ068ZEKHAHYEKJU1S44VSNXQ;0031518000001292816;(00)077777779999991445;(00)177777779999999903;;;912c5718-8b35-450b-80ef-1b0afee09f1d;;;;СКУ-2;ВИСКМИКС  напиток винный вкус виски и меда  0,5л 14%
74N000008MC75BA4HZK0BSS509180010330516FEH7YZZ068ZECUCWYEKJU1S44VSNXQ;0031518000001292816;(00)077777779999991445;(00)177777779999999903;;;912c5718-8b35-450b-80ef-1b0afee09f1d;;;;СКУ-2;ВИСКМИКС  напиток винный вкус виски и меда  0,5л 14%
62N000008MC75BA4HZK0BSS509180010330278FEH7YZZ068ZECUCWYEKJU1S44VSNXQ;0031518000001292816;(00)077777779999991445;(00)177777779999999903;;;912c5718-8b35-450b-80ef-1b0afee09f1d;;;;СКУ-2;ВИСКМИКС  напиток винный вкус виски и меда  0,5л 14%
97N000008MC75BA4HZK0BSS509180010330605FEH7YZZ068ZECUCWYEKJU1S44VSNXQ;0031518000001292816;(00)077777779999991445;(00)177777779999999903;;;912c5718-8b35-450b-80ef-1b0afee09f1d;;;;СКУ-2;ВИСКМИКС  напиток винный вкус виски и меда  0,5л 14%
65N000008MC75BA4HZK0BSS509180010330463FEH7YZZ068ZECUCWYEKJU1S44VSNXQ;0031518000001292816;(00)077777779999991445;(00)177777779999999903;;;912c5718-8b35-450b-80ef-1b0afee09f1d;;;;СКУ-2;ВИСКМИКС  напиток винный вкус виски и меда  0,5л 14%
28N000008MC75BA4HZK0BSS509180010330976FEH7YZZ068ZECUCWYEKJU1S44VSNXQ;0031518000001292816;(00)077777779999991445;(00)177777779999999903;;;912c5718-8b35-450b-80ef-1b0afee09f1d;;;;СКУ-2;ВИСКМИКС  напиток винный вкус виски и меда  0,5л 14%
11N000008MC75BA4HZK0BSS509180010330648FEH7YZZ068ZEYEQIYEKJU1S44VSNXQ;0031518000001292816;(00)077777779999991445;(00)177777779999999903;;;912c5718-8b35-450b-80ef-1b0afee09f1d;;;;СКУ-2;ВИСКМИКС  напиток винный вкус виски и меда  0,5л 14%
85N000008MC75BA4HZK0BSS509180010330491FEH7YZZ068ZEYEQIYEKJU1S44VSNXQ;0031518000001292816;(00)077777779999991445;(00)177777779999999903;;;912c5718-8b35-450b-80ef-1b0afee09f1d;;;;СКУ-2;ВИСКМИКС  напиток винный вкус виски и меда  0,5л 14%
12N000008MC75BA4HZK0BSS509180010330131FEH7YZZ068ZEYEQIYEKJU1S44VSNXQ;0031518000001292816;(00)077777779999991445;(00)177777779999999903;;;912c5718-8b35-450b-80ef-1b0afee09f1d;;;;СКУ-2;ВИСКМИКС  напиток винный вкус виски и меда  0,5л 14%
50N000008MC75BA4HZK0BSS509180010330831FEH7YZZ068ZEYEQIYEKJU1S44VSNXQ;0031518000001292816;(00)077777779999991445;(00)177777779999999903;;;912c5718-8b35-450b-80ef-1b0afee09f1d;;;;СКУ-2;ВИСКМИКС  напиток винный вкус виски и меда  0,5л 14%
72N000008MC75BA4HZK0BSS509180010330444FEH7YZZ068ZEYEQIYEKJU1S44VSNXQ;0031518000001292816;(00)077777779999991445;(00)177777779999999903;;;912c5718-8b35-450b-80ef-1b0afee09f1d;;;;СКУ-2;ВИСКМИКС  напиток винный вкус виски и меда  0,5л 14%
13N000008MC75BA4HZK0BSS509180010330887FEH7YZZ068ZEIQUOYEKJU1S44VSNXQ;0031518000001292816;(00)077777779999991445;(00)177777779999999903;;;912c5718-8b35-450b-80ef-1b0afee09f1d;;;;СКУ-2;ВИСКМИКС  напиток винный вкус виски и меда  0,5л 14%
40N000008MC75BA4HZK0BSS509180010330351FEH7YZZ068ZEIQUOYEKJU1S44VSNXQ;0031518000001292816;(00)077777779999991445;(00)177777779999999903;;;912c5718-8b35-450b-80ef-1b0afee09f1d;;;;СКУ-2;ВИСКМИКС  напиток винный вкус виски и меда  0,5л 14%
73N000008MC75BA4HZK0BSS509180010330164FEH7YZZ068ZEIQUOYEKJU1S44VSNXQ;0031518000001292816;(00)077777779999991445;(00)177777779999999903;;;912c5718-8b35-450b-80ef-1b0afee09f1d;;;;СКУ-2;ВИСКМИКС  напиток винный вкус виски и меда  0,5л 14%
92N000008MC75BA4HZK0BSS509180010330962FEH7YZZ068ZEIQUOYEKJU1S44VSNXQ;0031518000001292816;(00)077777779999991445;(00)177777779999999903;;;912c5718-8b35-450b-80ef-1b0afee09f1d;;;;СКУ-2;ВИСКМИКС  напиток винный вкус виски и меда  0,5л 14%
32N000008MC75BA4HZK0BSS509180010330452FEH7YZZ068ZEIQUOYEKJU1S44VSNXQ;0031518000001292816;(00)077777779999991445;(00)177777779999999903;;;912c5718-8b35-450b-80ef-1b0afee09f1d;;;;СКУ-2;ВИСКМИКС  напиток винный вкус виски и меда  0,5л 14%
40N000008MC75BA4HZK0BSS509180010330821FEH7YZZ068ZEIWZUYEKJU1S44VSNXQ;0031518000001292816;(00)077777779999991445;(00)177777779999999903;;;912c5718-8b35-450b-80ef-1b0afee09f1d;;;;СКУ-2;ВИСКМИКС  напиток винный вкус виски и меда  0,5л 14%
43N000008MC75BA4HZK0BSS509180010330789FEH7YZZ068ZEIWZUYEKJU1S44VSNXQ;0031518000001292816;(00)077777779999991445;(00)177777779999999903;;;912c5718-8b35-450b-80ef-1b0afee09f1d;;;;СКУ-2;ВИСКМИКС  напиток винный вкус виски и меда  0,5л 14%
21N000008MC75BA4HZK0BSS509180010330216FEH7YZZ068ZEIWZUYEKJU1S44VSNXQ;0031518000001292816;(00)077777779999991445;(00)177777779999999903;;;912c5718-8b35-450b-80ef-1b0afee09f1d;;;;СКУ-2;ВИСКМИКС  напиток винный вкус виски и меда  0,5л 14%
94N000008MC75BA4HZK0BSS509180010330633FEH7YZZ068ZEIWZUYEKJU1S44VSNXQ;0031518000001292816;(00)077777779999991445;(00)177777779999999903;;;912c5718-8b35-450b-80ef-1b0afee09f1d;;;;СКУ-2;ВИСКМИКС  напиток винный вкус виски и меда  0,5л 14%
27N000008MC75BA4HZK0BSS509180010330133FEH7YZZ068ZEIWZUYEKJU1S44VSNXQ;0031518000001292816;(00)077777779999991445;(00)177777779999999903;;;912c5718-8b35-450b-80ef-1b0afee09f1d;;;;СКУ-2;ВИСКМИКС  напиток винный вкус виски и меда  0,5л 14%
94N000008MC75BA4HZK0BSS509180010330771FEH7YZZ068ZEZCMAYEKJU1S44VSNXQ;0031518000001292816;(00)077777779999991446;(00)177777779999999903;;;912c5718-8b35-450b-80ef-1b0afee09f1d;;;;СКУ-2;ВИСКМИКС  напиток винный вкус виски и меда  0,5л 14%
35N000008MC75BA4HZK0BSS509180010330655FEH7YZZ068ZEZCMAYEKJU1S44VSNXQ;0031518000001292816;(00)077777779999991446;(00)177777779999999903;;;912c5718-8b35-450b-80ef-1b0afee09f1d;;;;СКУ-2;ВИСКМИКС  напиток винный вкус виски и меда  0,5л 14%
73N000008MC75BA4HZK0BSS509180010330238FEH7YZZ068ZEZCMAYEKJU1S44VSNXQ;0031518000001292816;(00)077777779999991446;(00)177777779999999903;;;912c5718-8b35-450b-80ef-1b0afee09f1d;;;;СКУ-2;ВИСКМИКС  напиток винный вкус виски и меда  0,5л 14%
89N000008MC75BA4HZK0BSS509180010330944FEH7YZZ068ZEZCMAYEKJU1S44VSNXQ;0031518000001292816;(00)077777779999991446;(00)177777779999999903;;;912c5718-8b35-450b-80ef-1b0afee09f1d;;;;СКУ-2;ВИСКМИКС  напиток винный вкус виски и меда  0,5л 14%
97N000008MC75BA4HZK0BSS509180010330840FEH7YZZ068ZEZCMAYEKJU1S44VSNXQ;0031518000001292816;(00)077777779999991446;(00)177777779999999903;;;912c5718-8b35-450b-80ef-1b0afee09f1d;;;;СКУ-2;ВИСКМИКС  напиток винный вкус виски и меда  0,5л 14%
45N000008MC75BA4HZK0BSS509180010330167FEH7YZZ068ZEUVNHYEKJU1S44VSNXQ;0031518000001292816;(00)077777779999991446;(00)177777779999999903;;;912c5718-8b35-450b-80ef-1b0afee09f1d;;;;СКУ-2;ВИСКМИКС  напиток винный вкус виски и меда  0,5л 14%
20N000008MC75BA4HZK0BSS509180010330445FEH7YZZ068ZEUVNHYEKJU1S44VSNXQ;0031518000001292816;(00)077777779999991446;(00)177777779999999903;;;912c5718-8b35-450b-80ef-1b0afee09f1d;;;;СКУ-2;ВИСКМИКС  напиток винный вкус виски и меда  0,5л 14%
73N000008MC75BA4HZK0BSS509180010330947FEH7YZZ068ZEUVNHYEKJU1S44VSNXQ;0031518000001292816;(00)077777779999991446;(00)177777779999999903;;;912c5718-8b35-450b-80ef-1b0afee09f1d;;;;СКУ-2;ВИСКМИКС  напиток винный вкус виски и меда  0,5л 14%
40N000008MC75BA4HZK0BSS509180010330773FEH7YZZ068ZEUVNHYEKJU1S44VSNXQ;0031518000001292816;(00)077777779999991446;(00)177777779999999903;;;912c5718-8b35-450b-80ef-1b0afee09f1d;;;;СКУ-2;ВИСКМИКС  напиток винный вкус виски и меда  0,5л 14%
89N000008MC75BA4HZK0BSS509180010330508FEH7YZZ068ZEUVNHYEKJU1S44VSNXQ;0031518000001292816;(00)077777779999991446;(00)177777779999999903;;;912c5718-8b35-450b-80ef-1b0afee09f1d;;;;СКУ-2;ВИСКМИКС  напиток винный вкус виски и меда  0,5л 14%
23N000008MC75BA4HZK0BSS509180010330692FEH7YZZ068ZELOHHYEKJU1S44VSNXQ;0031518000001292816;(00)077777779999991446;(00)177777779999999903;;;912c5718-8b35-450b-80ef-1b0afee09f1d;;;;СКУ-2;ВИСКМИКС  напиток винный вкус виски и меда  0,5л 14%
53N000008MC75BA4HZK0BSS509180010330644FEH7YZZ068ZELOHHYEKJU1S44VSNXQ;0031518000001292816;(00)077777779999991446;(00)177777779999999903;;;912c5718-8b35-450b-80ef-1b0afee09f1d;;;;СКУ-2;ВИСКМИКС  напиток винный вкус виски и меда  0,5л 14%
17N000008MC75BA4HZK0BSS509180010330306FEH7YZZ068ZELOHHYEKJU1S44VSNXQ;0031518000001292816;(00)077777779999991446;(00)177777779999999903;;;912c5718-8b35-450b-80ef-1b0afee09f1d;;;;СКУ-2;ВИСКМИКС  напиток винный вкус виски и меда  0,5л 14%
30N000008MC75BA4HZK0BSS509180010330184FEH7YZZ068ZELOHHYEKJU1S44VSNXQ;0031518000001292816;(00)077777779999991446;(00)177777779999999903;;;912c5718-8b35-450b-80ef-1b0afee09f1d;;;;СКУ-2;ВИСКМИКС  напиток винный вкус виски и меда  0,5л 14%
37N000008MC75BA4HZK0BSS509180010330921FEH7YZZ068ZELOHHYEKJU1S44VSNXQ;0031518000001292816;(00)077777779999991446;(00)177777779999999903;;;912c5718-8b35-450b-80ef-1b0afee09f1d;;;;СКУ-2;ВИСКМИКС  напиток винный вкус виски и меда  0,5л 14%
16N000008MC75BA4HZK0BSS509180010330882FEH7YZZ068ZEIBHMYEKJU1S44VSNXQ;0031518000001292816;(00)077777779999991446;(00)177777779999999903;;;912c5718-8b35-450b-80ef-1b0afee09f1d;;;;СКУ-2;ВИСКМИКС  напиток винный вкус виски и меда  0,5л 14%
64N000008MC75BA4HZK0BSS509180010330712FEH7YZZ068ZEIBHMYEKJU1S44VSNXQ;0031518000001292816;(00)077777779999991446;(00)177777779999999903;;;912c5718-8b35-450b-80ef-1b0afee09f1d;;;;СКУ-2;ВИСКМИКС  напиток винный вкус виски и меда  0,5л 14%
48N000008MC75BA4HZK0BSS509180010330375FEH7YZZ068ZEIBHMYEKJU1S44VSNXQ;0031518000001292816;(00)077777779999991446;(00)177777779999999903;;;912c5718-8b35-450b-80ef-1b0afee09f1d;;;;СКУ-2;ВИСКМИКС  напиток винный вкус виски и меда  0,5л 14%
61N000008MC75BA4HZK0BSS509180010330754FEH7YZZ068ZEIBHMYEKJU1S44VSNXQ;0031518000001292816;(00)077777779999991446;(00)177777779999999903;;;912c5718-8b35-450b-80ef-1b0afee09f1d;;;;СКУ-2;ВИСКМИКС  напиток винный вкус виски и меда  0,5л 14%
59N000008MC75BA4HZK0BSS509180010330620FEH7YZZ068ZEIBHMYEKJU1S44VSNXQ;0031518000001292816;(00)077777779999991446;(00)177777779999999903;;;912c5718-8b35-450b-80ef-1b0afee09f1d;;;;СКУ-2;ВИСКМИКС  напиток винный вкус виски и меда  0,5л 14%
24N000008MC75BA4HZK0BSS509180010330986FEH7YZZ068ZEOURAYEKJU1S44VSNXQ;0031518000001292816;(00)077777779999991446;(00)177777779999999903;;;912c5718-8b35-450b-80ef-1b0afee09f1d;;;;СКУ-2;ВИСКМИКС  напиток винный вкус виски и меда  0,5л 14%
96N000008MC75BA4HZK0BSS509180010330496FEH7YZZ068ZEOURAYEKJU1S44VSNXQ;0031518000001292816;(00)077777779999991446;(00)177777779999999903;;;912c5718-8b35-450b-80ef-1b0afee09f1d;;;;СКУ-2;ВИСКМИКС  напиток винный вкус виски и меда  0,5л 14%
97N000008MC75BA4HZK0BSS509180010330355FEH7YZZ068ZEOURAYEKJU1S44VSNXQ;0031518000001292816;(00)077777779999991446;(00)177777779999999903;;;912c5718-8b35-450b-80ef-1b0afee09f1d;;;;СКУ-2;ВИСКМИКС  напиток винный вкус виски и меда  0,5л 14%
14N000008MC75BA4HZK0BSS509180010330272FEH7YZZ068ZEOURAYEKJU1S44VSNXQ;0031518000001292816;(00)077777779999991446;(00)177777779999999903;;;912c5718-8b35-450b-80ef-1b0afee09f1d;;;;СКУ-2;ВИСКМИКС  напиток винный вкус виски и меда  0,5л 14%
70N000008MC75BA4HZK0BSS509180010330995FEH7YZZ068ZEOURAYEKJU1S44VSNXQ;0031518000001292816;(00)077777779999991446;(00)177777779999999903;;;912c5718-8b35-450b-80ef-1b0afee09f1d;;;;СКУ-2;ВИСКМИКС  напиток винный вкус виски и меда  0,5л 14%
78N000008MC75BA4HZK0BSS509180010330287FEH7YZZ068ZEPRJOYEKJU1S44VSNXQ;0031518000001292816;(00)077777779999991447;(00)177777779999999903;;;912c5718-8b35-450b-80ef-1b0afee09f1d;;;;СКУ-2;ВИСКМИКС  напиток винный вкус виски и меда  0,5л 14%
72N000008MC75BA4HZK0BSS509180010330776FEH7YZZ068ZEPRJOYEKJU1S44VSNXQ;0031518000001292816;(00)077777779999991447;(00)177777779999999903;;;912c5718-8b35-450b-80ef-1b0afee09f1d;;;;СКУ-2;ВИСКМИКС  напиток винный вкус виски и меда  0,5л 14%
32N000008MC75BA4HZK0BSS509180010330724FEH7YZZ068ZEPRJOYEKJU1S44VSNXQ;0031518000001292816;(00)077777779999991447;(00)177777779999999903;;;912c5718-8b35-450b-80ef-1b0afee09f1d;;;;СКУ-2;ВИСКМИКС  напиток винный вкус виски и меда  0,5л 14%
87N000008MC75BA4HZK0BSS509180010330369FEH7YZZ068ZEPRJOYEKJU1S44VSNXQ;0031518000001292816;(00)077777779999991447;(00)177777779999999903;;;912c5718-8b35-450b-80ef-1b0afee09f1d;;;;СКУ-2;ВИСКМИКС  напиток винный вкус виски и меда  0,5л 14%
57N000008MC75BA4HZK0BSS509180010330548FEH7YZZ068ZEPRJOYEKJU1S44VSNXQ;0031518000001292816;(00)077777779999991447;(00)177777779999999903;;;912c5718-8b35-450b-80ef-1b0afee09f1d;;;;СКУ-2;ВИСКМИКС  напиток винный вкус виски и меда  0,5л 14%
90N000008MC75BA4HZK0BSS509180010330835FEH7YZZ068ZESTEFYEKJU1S44VSNXQ;0031518000001292816;(00)077777779999991447;(00)177777779999999903;;;912c5718-8b35-450b-80ef-1b0afee09f1d;;;;СКУ-2;ВИСКМИКС  напиток винный вкус виски и меда  0,5л 14%
66N000008MC75BA4HZK0BSS509180010330171FEH7YZZ068ZESTEFYEKJU1S44VSNXQ;0031518000001292816;(00)077777779999991447;(00)177777779999999903;;;912c5718-8b35-450b-80ef-1b0afee09f1d;;;;СКУ-2;ВИСКМИКС  напиток винный вкус виски и меда  0,5л 14%
76N000008MC75BA4HZK0BSS509180010330582FEH7YZZ068ZESTEFYEKJU1S44VSNXQ;0031518000001292816;(00)077777779999991447;(00)177777779999999903;;;912c5718-8b35-450b-80ef-1b0afee09f1d;;;;СКУ-2;ВИСКМИКС  напиток винный вкус виски и меда  0,5л 14%
50N000008MC75BA4HZK0BSS509180010330503FEH7YZZ068ZESTEFYEKJU1S44VSNXQ;0031518000001292816;(00)077777779999991447;(00)177777779999999903;;;912c5718-8b35-450b-80ef-1b0afee09f1d;;;;СКУ-2;ВИСКМИКС  напиток винный вкус виски и меда  0,5л 14%
94N000008MC75BA4HZK0BSS509180010330478FEH7YZZ068ZESTEFYEKJU1S44VSNXQ;0031518000001292816;(00)077777779999991447;(00)177777779999999903;;;912c5718-8b35-450b-80ef-1b0afee09f1d;;;;СКУ-2;ВИСКМИКС  напиток винный вкус виски и меда  0,5л 14%
42N000008MC75BA4HZK0BSS509180010330661FEH7YZZ068ZEYKSYYEKJU1S44VSNXQ;0031518000001292816;(00)077777779999991447;(00)177777779999999903;;;912c5718-8b35-450b-80ef-1b0afee09f1d;;;;СКУ-2;ВИСКМИКС  напиток винный вкус виски и меда  0,5л 14%
26N000008MC75BA4HZK0BSS509180010330392FEH7YZZ068ZEYKSYYEKJU1S44VSNXQ;0031518000001292816;(00)077777779999991447;(00)177777779999999903;;;912c5718-8b35-450b-80ef-1b0afee09f1d;;;;СКУ-2;ВИСКМИКС  напиток винный вкус виски и меда  0,5л 14%
35N000008MC75BA4HZK0BSS509180010330258FEH7YZZ068ZEYKSYYEKJU1S44VSNXQ;0031518000001292816;(00)077777779999991447;(00)177777779999999903;;;912c5718-8b35-450b-80ef-1b0afee09f1d;;;;СКУ-2;ВИСКМИКС  напиток винный вкус виски и меда  0,5л 14%
70N000008MC75BA4HZK0BSS509180010330155FEH7YZZ068ZEYKSYYEKJU1S44VSNXQ;0031518000001292816;(00)077777779999991447;(00)177777779999999903;;;912c5718-8b35-450b-80ef-1b0afee09f1d;;;;СКУ-2;ВИСКМИКС  напиток винный вкус виски и меда  0,5л 14%
64N000008MC75BA4HZK0BSS509180010330825FEH7YZZ068ZEYKSYYEKJU1S44VSNXQ;0031518000001292816;(00)077777779999991447;(00)177777779999999903;;;912c5718-8b35-450b-80ef-1b0afee09f1d;;;;СКУ-2;ВИСКМИКС  напиток винный вкус виски и меда  0,5л 14%
58N000008MC75BA4HZK0BSS509180010330322FEH7YZZ068ZENULCYEKJU1S44VSNXQ;0031518000001292816;(00)077777779999991447;(00)177777779999999903;;;912c5718-8b35-450b-80ef-1b0afee09f1d;;;;СКУ-2;ВИСКМИКС  напиток винный вкус виски и меда  0,5л 14%
12N000008MC75BA4HZK0BSS509180010330219FEH7YZZ068ZENULCYEKJU1S44VSNXQ;0031518000001292816;(00)077777779999991447;(00)177777779999999903;;;912c5718-8b35-450b-80ef-1b0afee09f1d;;;;СКУ-2;ВИСКМИКС  напиток винный вкус виски и меда  0,5л 14%
22N000008MC75BA4HZK0BSS509180010330892FEH7YZZ068ZENULCYEKJU1S44VSNXQ;0031518000001292816;(00)077777779999991447;(00)177777779999999903;;;912c5718-8b35-450b-80ef-1b0afee09f1d;;;;СКУ-2;ВИСКМИКС  напиток винный вкус виски и меда  0,5л 14%
25N000008MC75BA4HZK0BSS509180010330878FEH7YZZ068ZENULCYEKJU1S44VSNXQ;0031518000001292816;(00)077777779999991447;(00)177777779999999903;;;912c5718-8b35-450b-80ef-1b0afee09f1d;;;;СКУ-2;ВИСКМИКС  напиток винный вкус виски и меда  0,5л 14%
81N000008MC75BA4HZK0BSS509180010330233FEH7YZZ068ZENULCYEKJU1S44VSNXQ;0031518000001292816;(00)077777779999991447;(00)177777779999999903;;;912c5718-8b35-450b-80ef-1b0afee09f1d;;;;СКУ-2;ВИСКМИКС  напиток винный вкус виски и меда  0,5л 14%
13N000008MC75BA4HZK0BSS509180010330902FEH7YZZ068ZEADLUYEKJU1S44VSNXQ;0031518000001292816;(00)077777779999991447;(00)177777779999999903;;;912c5718-8b35-450b-80ef-1b0afee09f1d;;;;СКУ-2;ВИСКМИКС  напиток винный вкус виски и меда  0,5л 14%
27N000008MC75BA4HZK0BSS509180010330168FEH7YZZ068ZEADLUYEKJU1S44VSNXQ;0031518000001292816;(00)077777779999991447;(00)177777779999999903;;;912c5718-8b35-450b-80ef-1b0afee09f1d;;;;СКУ-2;ВИСКМИКС  напиток винный вкус виски и меда  0,5л 14%
69N000008MC75BA4HZK0BSS509180010330418FEH7YZZ068ZEADLUYEKJU1S44VSNXQ;0031518000001292816;(00)077777779999991447;(00)177777779999999903;;;912c5718-8b35-450b-80ef-1b0afee09f1d;;;;СКУ-2;ВИСКМИКС  напиток винный вкус виски и меда  0,5л 14%
41N000008MC75BA4HZK0BSS509180010330918FEH7YZZ068ZEADLUYEKJU1S44VSNXQ;0031518000001292816;(00)077777779999991447;(00)177777779999999903;;;912c5718-8b35-450b-80ef-1b0afee09f1d;;;;СКУ-2;ВИСКМИКС  напиток винный вкус виски и меда  0,5л 14%
71N000008MC75BA4HZK0BSS509180010330513FEH7YZZ068ZEADLUYEKJU1S44VSNXQ;0031518000001292816;(00)077777779999991447;(00)177777779999999903;;;912c5718-8b35-450b-80ef-1b0afee09f1d;;;;СКУ-2;ВИСКМИКС  напиток винный вкус виски и меда  0,5л 14%
83N000008MC75BA4HZK0BSS509180010330323FEH7YZZ068ZEYMYIYEKJU1S44VSNXQ;0031518000001292816;(00)077777779999991448;(00)177777779999999903;;;912c5718-8b35-450b-80ef-1b0afee09f1d;;;;СКУ-2;ВИСКМИКС  напиток винный вкус виски и меда  0,5л 14%
14N000008MC75BA4HZK0BSS509180010330678FEH7YZZ068ZEYMYIYEKJU1S44VSNXQ;0031518000001292816;(00)077777779999991448;(00)177777779999999903;;;912c5718-8b35-450b-80ef-1b0afee09f1d;;;;СКУ-2;ВИСКМИКС  напиток винный вкус виски и меда  0,5л 14%
83N000008MC75BA4HZK0BSS509180010330248FEH7YZZ068ZEYMYIYEKJU1S44VSNXQ;0031518000001292816;(00)077777779999991448;(00)177777779999999903;;;912c5718-8b35-450b-80ef-1b0afee09f1d;;;;СКУ-2;ВИСКМИКС  напиток винный вкус виски и меда  0,5л 14%
10N000008MC75BA4HZK0BSS509180010330449FEH7YZZ068ZEYMYIYEKJU1S44VSNXQ;0031518000001292816;(00)077777779999991448;(00)177777779999999903;;;912c5718-8b35-450b-80ef-1b0afee09f1d;;;;СКУ-2;ВИСКМИКС  напиток винный вкус виски и меда  0,5л 14%
51N000008MC75BA4HZK0BSS509180010330738FEH7YZZ068ZEYMYIYEKJU1S44VSNXQ;0031518000001292816;(00)077777779999991448;(00)177777779999999903;;;912c5718-8b35-450b-80ef-1b0afee09f1d;;;;СКУ-2;ВИСКМИКС  напиток винный вкус виски и меда  0,5л 14%
16N000008MC75BA4HZK0BSS509180010330758FEH7YZZ068ZEPNAUYEKJU1S44VSNXQ;0031518000001292816;(00)077777779999991448;(00)177777779999999903;;;912c5718-8b35-450b-80ef-1b0afee09f1d;;;;СКУ-2;ВИСКМИКС  напиток винный вкус виски и меда  0,5л 14%
94N000008MC75BA4HZK0BSS509180010330707FEH7YZZ068ZEPNAUYEKJU1S44VSNXQ;0031518000001292816;(00)077777779999991448;(00)177777779999999903;;;912c5718-8b35-450b-80ef-1b0afee09f1d;;;;СКУ-2;ВИСКМИКС  напиток винный вкус виски и меда  0,5л 14%
79N000008MC75BA4HZK0BSS509180010330566FEH7YZZ068ZEPNAUYEKJU1S44VSNXQ;0031518000001292816;(00)077777779999991448;(00)177777779999999903;;;912c5718-8b35-450b-80ef-1b0afee09f1d;;;;СКУ-2;ВИСКМИКС  напиток винный вкус виски и меда  0,5л 14%
92N000008MC75BA4HZK0BSS509180010330876FEH7YZZ068ZEPNAUYEKJU1S44VSNXQ;0031518000001292816;(00)077777779999991448;(00)177777779999999903;;;912c5718-8b35-450b-80ef-1b0afee09f1d;;;;СКУ-2;ВИСКМИКС  напиток винный вкус виски и меда  0,5л 14%
42N000008MC75BA4HZK0BSS509180010330630FEH7YZZ068ZEWRHPYEKJU1S44VSNXQ;0031518000001292816;(00)077777779999991448;(00)177777779999999903;;;912c5718-8b35-450b-80ef-1b0afee09f1d;;;;СКУ-2;ВИСКМИКС  напиток винный вкус виски и меда  0,5л 14%
66N000008MC75BA4HZK0BSS509180010330829FEH7YZZ068ZEWRHPYEKJU1S44VSNXQ;0031518000001292816;(00)077777779999991448;(00)177777779999999903;;;912c5718-8b35-450b-80ef-1b0afee09f1d;;;;СКУ-2;ВИСКМИКС  напиток винный вкус виски и меда  0,5л 14%
43N000008MC75BA4HZK0BSS509180010330526FEH7YZZ068ZEWRHPYEKJU1S44VSNXQ;0031518000001292816;(00)077777779999991448;(00)177777779999999903;;;912c5718-8b35-450b-80ef-1b0afee09f1d;;;;СКУ-2;ВИСКМИКС  напиток винный вкус виски и меда  0,5л 14%
48N000008MC75BA4HZK0BSS509180010330220FEH7YZZ068ZEWRHPYEKJU1S44VSNXQ;0031518000001292816;(00)077777779999991448;(00)177777779999999903;;;912c5718-8b35-450b-80ef-1b0afee09f1d;;;;СКУ-2;ВИСКМИКС  напиток винный вкус виски и меда  0,5л 14%
68N000008MC75BA4HZK0BSS509180010330946FEH7YZZ068ZEWRHPYEKJU1S44VSNXQ;0031518000001292816;(00)077777779999991448;(00)177777779999999903;;;912c5718-8b35-450b-80ef-1b0afee09f1d;;;;СКУ-2;ВИСКМИКС  напиток винный вкус виски и меда  0,5л 14%
82N000008MC75BA4HZK0BSS509180010330793FEH7YZZ068ZEEBFQYEKJU1S44VSNXQ;0031518000001292816;(00)077777779999991448;(00)177777779999999903;;;912c5718-8b35-450b-80ef-1b0afee09f1d;;;;СКУ-2;ВИСКМИКС  напиток винный вкус виски и меда  0,5л 14%
41N000008MC75BA4HZK0BSS509180010330257FEH7YZZ068ZEEBFQYEKJU1S44VSNXQ;0031518000001292816;(00)077777779999991448;(00)177777779999999903;;;912c5718-8b35-450b-80ef-1b0afee09f1d;;;;СКУ-2;ВИСКМИКС  напиток винный вкус виски и меда  0,5л 14%
97N000008MC75BA4HZK0BSS509180010330377FEH7YZZ068ZEEBFQYEKJU1S44VSNXQ;0031518000001292816;(00)077777779999991448;(00)177777779999999903;;;912c5718-8b35-450b-80ef-1b0afee09f1d;;;;СКУ-2;ВИСКМИКС  напиток винный вкус виски и меда  0,5л 14%
26N000008MC75BA4HZK0BSS509180010330459FEH7YZZ068ZEEBFQYEKJU1S44VSNXQ;0031518000001292816;(00)077777779999991448;(00)177777779999999903;;;912c5718-8b35-450b-80ef-1b0afee09f1d;;;;СКУ-2;ВИСКМИКС  напиток винный вкус виски и меда  0,5л 14%
36N000008MC75BA4HZK0BSS509180010330985FEH7YZZ068ZEEBFQYEKJU1S44VSNXQ;0031518000001292816;(00)077777779999991448;(00)177777779999999903;;;912c5718-8b35-450b-80ef-1b0afee09f1d;;;;СКУ-2;ВИСКМИКС  напиток винный вкус виски и меда  0,5л 14%
87N000008MC75BA4HZK0BSS509180010330812FEH7YZZ068ZEHANSYEKJU1S44VSNXQ;0031518000001292816;(00)077777779999991448;(00)177777779999999903;;;912c5718-8b35-450b-80ef-1b0afee09f1d;;;;СКУ-2;ВИСКМИКС  напиток винный вкус виски и меда  0,5л 14%
45N000008MC75BA4HZK0BSS509180010330196FEH7YZZ068ZEHANSYEKJU1S44VSNXQ;0031518000001292816;(00)077777779999991448;(00)177777779999999903;;;912c5718-8b35-450b-80ef-1b0afee09f1d;;;;СКУ-2;ВИСКМИКС  напиток винный вкус виски и меда  0,5л 14%
56N000008MC75BA4HZK0BSS509180010330850FEH7YZZ068ZEHANSYEKJU1S44VSNXQ;0031518000001292816;(00)077777779999991448;(00)177777779999999903;;;912c5718-8b35-450b-80ef-1b0afee09f1d;;;;СКУ-2;ВИСКМИКС  напиток винный вкус виски и меда  0,5л 14%
82N000008MC75BA4HZK0BSS509180010330521FEH7YZZ068ZEHANSYEKJU1S44VSNXQ;0031518000001292816;(00)077777779999991448;(00)177777779999999903;;;912c5718-8b35-450b-80ef-1b0afee09f1d;;;;СКУ-2;ВИСКМИКС  напиток винный вкус виски и меда  0,5л 14%
19N000008MC75BA4HZK0BSS509180010330991FEH7YZZ068ZEHANSYEKJU1S44VSNXQ;0031518000001292816;(00)077777779999991448;(00)177777779999999903;;;912c5718-8b35-450b-80ef-1b0afee09f1d;;;;СКУ-2;ВИСКМИКС  напиток винный вкус виски и меда  0,5л 14%
59N000008MC75BA4HZK0BSS509180010330855FEH7YZZ068ZETTMWYEKJU1S44VSNXQ;0031518000001292816;(00)077777779999991448;(00)177777779999999903;;;912c5718-8b35-450b-80ef-1b0afee09f1d;;;;СКУ-2;ВИСКМИКС  напиток винный вкус виски и меда  0,5л 14%
97N000008MC75BA4HZK0BSS509180010330847FEH7YZZ068ZETTMWYEKJU1S44VSNXQ;0031518000001292816;(00)077777779999991449;(00)177777779999999903;;;912c5718-8b35-450b-80ef-1b0afee09f1d;;;;СКУ-2;ВИСКМИКС  напиток винный вкус виски и меда  0,5л 14%
18N000008MC75BA4HZK0BSS509180010330325FEH7YZZ068ZEODYCYEKJU1S44VSNXQ;0031518000001292816;(00)077777779999991449;(00)177777779999999903;;;912c5718-8b35-450b-80ef-1b0afee09f1d;;;;СКУ-2;ВИСКМИКС  напиток винный вкус виски и меда  0,5л 14%
63N000008MC75BA4HZK0BSS509180010330322FEH7YZZ068ZEODYCYEKJU1S44VSNXQ;0031518000001292816;(00)077777779999991449;(00)177777779999999903;;;912c5718-8b35-450b-80ef-1b0afee09f1d;;;;СКУ-2;ВИСКМИКС  напиток винный вкус виски и меда  0,5л 14%
33N000008MC75BA4HZK0BSS509180010330425FEH7YZZ068ZEODYCYEKJU1S44VSNXQ;0031518000001292816;(00)077777779999991449;(00)177777779999999903;;;912c5718-8b35-450b-80ef-1b0afee09f1d;;;;СКУ-2;ВИСКМИКС  напиток винный вкус виски и меда  0,5л 14%
74N000008MC75BA4HZK0BSS509180010330898FEH7YZZ068ZEHGHZYEKJU1S44VSNXQ;0031518000001292816;(00)077777779999991449;(00)177777779999999903;;;912c5718-8b35-450b-80ef-1b0afee09f1d;;;;СКУ-2;ВИСКМИКС  напиток винный вкус виски и меда  0,5л 14%
74N000008MC75BA4HZK0BSS509180010330573FEH7YZZ068ZEHGHZYEKJU1S44VSNXQ;0031518000001292816;(00)077777779999991449;(00)177777779999999903;;;912c5718-8b35-450b-80ef-1b0afee09f1d;;;;СКУ-2;ВИСКМИКС  напиток винный вкус виски и меда  0,5л 14%
89N000008MC75BA4HZK0BSS509180010330860FEH7YZZ068ZEHGHZYEKJU1S44VSNXQ;0031518000001292816;(00)077777779999991449;(00)177777779999999903;;;912c5718-8b35-450b-80ef-1b0afee09f1d;;;;СКУ-2;ВИСКМИКС  напиток винный вкус виски и меда  0,5л 14%
85N000008MC75BA4HZK0BSS509180010330918FEH7YZZ068ZEHGHZYEKJU1S44VSNXQ;0031518000001292816;(00)077777779999991449;(00)177777779999999903;;;912c5718-8b35-450b-80ef-1b0afee09f1d;;;;СКУ-2;ВИСКМИКС  напиток винный вкус виски и меда  0,5л 14%
76N000008MC75BA4HZK0BSS509180010330690FEH7YZZ068ZEHGHZYEKJU1S44VSNXQ;0031518000001292816;(00)077777779999991449;(00)177777779999999903;;;912c5718-8b35-450b-80ef-1b0afee09f1d;;;;СКУ-2;ВИСКМИКС  напиток винный вкус виски и меда  0,5л 14%
52N000008MC75BA4HZK0BSS509180010330459FEH7YZZ068ZEPVCCYEKJU1S44VSNXQ;0031518000001292816;(00)077777779999991449;(00)177777779999999903;;;912c5718-8b35-450b-80ef-1b0afee09f1d;;;;СКУ-2;ВИСКМИКС  напиток винный вкус виски и меда  0,5л 14%
28N000008MC75BA4HZK0BSS509180010330949FEH7YZZ068ZEPVCCYEKJU1S44VSNXQ;0031518000001292816;(00)077777779999991449;(00)177777779999999903;;;912c5718-8b35-450b-80ef-1b0afee09f1d;;;;СКУ-2;ВИСКМИКС  напиток винный вкус виски и меда  0,5л 14%
98N000008MC75BA4HZK0BSS509180010330617FEH7YZZ068ZEPVCCYEKJU1S44VSNXQ;0031518000001292816;(00)077777779999991449;(00)177777779999999903;;;912c5718-8b35-450b-80ef-1b0afee09f1d;;;;СКУ-2;ВИСКМИКС  напиток винный вкус виски и меда  0,5л 14%
26N000008MC75BA4HZK0BSS509180010330591FEH7YZZ068ZEPVCCYEKJU1S44VSNXQ;0031518000001292816;(00)077777779999991449;(00)177777779999999903;;;912c5718-8b35-450b-80ef-1b0afee09f1d;;;;СКУ-2;ВИСКМИКС  напиток винный вкус виски и меда  0,5л 14%
35N000008MC75BA4HZK0BSS509180010330590FEH7YZZ068ZEPVCCYEKJU1S44VSNXQ;0031518000001292816;(00)077777779999991449;(00)177777779999999903;;;912c5718-8b35-450b-80ef-1b0afee09f1d;;;;СКУ-2;ВИСКМИКС  напиток винный вкус виски и меда  0,5л 14%
11N000008MC75BA4HZK0BSS509180010330699FEH7YZZ068ZEYDBJYEKJU1S44VSNXQ;0031518000001292816;(00)077777779999991449;(00)177777779999999903;;;912c5718-8b35-450b-80ef-1b0afee09f1d;;;;СКУ-2;ВИСКМИКС  напиток винный вкус виски и меда  0,5л 14%
67N000008MC75BA4HZK0BSS509180010330969FEH7YZZ068ZEYDBJYEKJU1S44VSNXQ;0031518000001292816;(00)077777779999991449;(00)177777779999999903;;;912c5718-8b35-450b-80ef-1b0afee09f1d;;;;СКУ-2;ВИСКМИКС  напиток винный вкус виски и меда  0,5л 14%
43N000008MC75BA4HZK0BSS509180010330978FEH7YZZ068ZEYDBJYEKJU1S44VSNXQ;0031518000001292816;(00)077777779999991449;(00)177777779999999903;;;912c5718-8b35-450b-80ef-1b0afee09f1d;;;;СКУ-2;ВИСКМИКС  напиток винный вкус виски и меда  0,5л 14%
80N000008MC75BA4HZK0BSS509180010330580FEH7YZZ068ZEYDBJYEKJU1S44VSNXQ;0031518000001292816;(00)077777779999991449;(00)177777779999999903;;;912c5718-8b35-450b-80ef-1b0afee09f1d;;;;СКУ-2;ВИСКМИКС  напиток винный вкус виски и меда  0,5л 14%
16N000008MC75BA4HZK0BSS509180010330764FEH7YZZ068ZEYDBJYEKJU1S44VSNXQ;0031518000001292816;(00)077777779999991449;(00)177777779999999903;;;912c5718-8b35-450b-80ef-1b0afee09f1d;;;;СКУ-2;ВИСКМИКС  напиток винный вкус виски и меда  0,5л 14%
72N000008MC75BA4HZK0BSS509180010330955FEH7YZZ068ZEVPXSYEKJU1S44VSNXQ;0031518000001292816;(00)077777779999991449;(00)177777779999999903;;;912c5718-8b35-450b-80ef-1b0afee09f1d;;;;СКУ-2;ВИСКМИКС  напиток винный вкус виски и меда  0,5л 14%
21N000008MC75BA4HZK0BSS509180010330951FEH7YZZ068ZEVPXSYEKJU1S44VSNXQ;0031518000001292816;(00)077777779999991449;(00)177777779999999903;;;912c5718-8b35-450b-80ef-1b0afee09f1d;;;;СКУ-2;ВИСКМИКС  напиток винный вкус виски и меда  0,5л 14%
33N000008MC75BA4HZK0BSS509180010330984FEH7YZZ068ZEVPXSYEKJU1S44VSNXQ;0031518000001292816;(00)077777779999991449;(00)177777779999999903;;;912c5718-8b35-450b-80ef-1b0afee09f1d;;;;СКУ-2;ВИСКМИКС  напиток винный вкус виски и меда  0,5л 14%
15N000008MC75BA4HZK0BSS509180010330893FEH7YZZ068ZEVPXSYEKJU1S44VSNXQ;0031518000001292816;(00)077777779999991449;(00)177777779999999903;;;912c5718-8b35-450b-80ef-1b0afee09f1d;;;;СКУ-2;ВИСКМИКС  напиток винный вкус виски и меда  0,5л 14%
28N000008MC75BA4HZK0BSS509180010330715FEH7YZZ068ZEVPXSYEKJU1S44VSNXQ;0031518000001292816;(00)077777779999991449;(00)177777779999999903;;;912c5718-8b35-450b-80ef-1b0afee09f1d;;;;СКУ-2;ВИСКМИКС  напиток винный вкус виски и меда  0,5л 14%
97N000008MC75BA4HZK0BSS509180010330918FEH7YZZ068ZEQXHVYEKJU1S44VSNXQ;0031518000001292816;(00)077777779999991449;(00)177777779999999903;;;912c5718-8b35-450b-80ef-1b0afee09f1d;;;;СКУ-2;ВИСКМИКС  напиток винный вкус виски и меда  0,5л 14%
73N000008MC75BA4HZK0BSS509180010330518FEH7YZZ068ZEQXHVYEKJU1S44VSNXQ;0031518000001292816;(00)077777779999991450;(00)177777779999999903;;;912c5718-8b35-450b-80ef-1b0afee09f1d;;;;СКУ-2;ВИСКМИКС  напиток винный вкус виски и меда  0,5л 14%
55N000008MC75BA4HZK0BSS509180010330260FEH7YZZ068ZEQXHVYEKJU1S44VSNXQ;0031518000001292816;(00)077777779999991450;(00)177777779999999903;;;912c5718-8b35-450b-80ef-1b0afee09f1d;;;;СКУ-2;ВИСКМИКС  напиток винный вкус виски и меда  0,5л 14%
65N000008MC75BA4HZK0BSS509180010330142FEH7YZZ068ZEQXHVYEKJU1S44VSNXQ;0031518000001292816;(00)077777779999991450;(00)177777779999999903;;;912c5718-8b35-450b-80ef-1b0afee09f1d;;;;СКУ-2;ВИСКМИКС  напиток винный вкус виски и меда  0,5л 14%
84N000008MC75BA4HZK0BSS509180010330575FEH7YZZ068ZEQXHVYEKJU1S44VSNXQ;0031518000001292816;(00)077777779999991450;(00)177777779999999903;;;912c5718-8b35-450b-80ef-1b0afee09f1d;;;;СКУ-2;ВИСКМИКС  напиток винный вкус виски и меда  0,5л 14%
15N000008MC75BA4HZK0BSS509180010330163FEH7YZZ068ZEDJWMYEKJU1S44VSNXQ;0031518000001292816;(00)077777779999991450;(00)177777779999999903;;;912c5718-8b35-450b-80ef-1b0afee09f1d;;;;СКУ-2;ВИСКМИКС  напиток винный вкус виски и меда  0,5л 14%
94N000008MC75BA4HZK0BSS509180010330754FEH7YZZ068ZEDJWMYEKJU1S44VSNXQ;0031518000001292816;(00)077777779999991450;(00)177777779999999903;;;912c5718-8b35-450b-80ef-1b0afee09f1d;;;;СКУ-2;ВИСКМИКС  напиток винный вкус виски и меда  0,5л 14%
72N000008MC75BA4HZK0BSS509180010330785FEH7YZZ068ZEDJWMYEKJU1S44VSNXQ;0031518000001292816;(00)077777779999991450;(00)177777779999999903;;;912c5718-8b35-450b-80ef-1b0afee09f1d;;;;СКУ-2;ВИСКМИКС  напиток винный вкус виски и меда  0,5л 14%
87N000008MC75BA4HZK0BSS509180010330168FEH7YZZ068ZEDJWMYEKJU1S44VSNXQ;0031518000001292816;(00)077777779999991450;(00)177777779999999903;;;912c5718-8b35-450b-80ef-1b0afee09f1d;;;;СКУ-2;ВИСКМИКС  напиток винный вкус виски и меда  0,5л 14%
22N000008MC75BA4HZK0BSS509180010330923FEH7YZZ068ZEDJWMYEKJU1S44VSNXQ;0031518000001292816;(00)077777779999991450;(00)177777779999999903;;;912c5718-8b35-450b-80ef-1b0afee09f1d;;;;СКУ-2;ВИСКМИКС  напиток винный вкус виски и меда  0,5л 14%
14N000008MC75BA4HZK0BSS509180010330394FEH7YZZ068ZEHKTJYEKJU1S44VSNXQ;0031518000001292816;(00)077777779999991450;(00)177777779999999903;;;912c5718-8b35-450b-80ef-1b0afee09f1d;;;;СКУ-2;ВИСКМИКС  напиток винный вкус виски и меда  0,5л 14%
84N000008MC75BA4HZK0BSS509180010330124FEH7YZZ068ZEHKTJYEKJU1S44VSNXQ;0031518000001292816;(00)077777779999991450;(00)177777779999999903;;;912c5718-8b35-450b-80ef-1b0afee09f1d;;;;СКУ-2;ВИСКМИКС  напиток винный вкус виски и меда  0,5л 14%
94N000008MC75BA4HZK0BSS509180010330582FEH7YZZ068ZEHKTJYEKJU1S44VSNXQ;0031518000001292816;(00)077777779999991450;(00)177777779999999903;;;912c5718-8b35-450b-80ef-1b0afee09f1d;;;;СКУ-2;ВИСКМИКС  напиток винный вкус виски и меда  0,5л 14%
33N000008MC75BA4HZK0BSS509180010330347FEH7YZZ068ZEHKTJYEKJU1S44VSNXQ;0031518000001292816;(00)077777779999991450;(00)177777779999999903;;;912c5718-8b35-450b-80ef-1b0afee09f1d;;;;СКУ-2;ВИСКМИКС  напиток винный вкус виски и меда  0,5л 14%
71N000008MC75BA4HZK0BSS509180010330119FEH7YZZ068ZEHKTJYEKJU1S44VSNXQ;0031518000001292816;(00)077777779999991450;(00)177777779999999903;;;912c5718-8b35-450b-80ef-1b0afee09f1d;;;;СКУ-2;ВИСКМИКС  напиток винный вкус виски и меда  0,5л 14%
55N000008MC75BA4HZK0BSS509180010330377FEH7YZZ068ZEPMCMYEKJU1S44VSNXQ;0031518000001292816;(00)077777779999991450;(00)177777779999999903;;;912c5718-8b35-450b-80ef-1b0afee09f1d;;;;СКУ-2;ВИСКМИКС  напиток винный вкус виски и меда  0,5л 14%
39N000008MC75BA4HZK0BSS509180010330647FEH7YZZ068ZEPMCMYEKJU1S44VSNXQ;0031518000001292816;(00)077777779999991450;(00)177777779999999903;;;912c5718-8b35-450b-80ef-1b0afee09f1d;;;;СКУ-2;ВИСКМИКС  напиток винный вкус виски и меда  0,5л 14%
59N000008MC75BA4HZK0BSS509180010330769FEH7YZZ068ZEPMCMYEKJU1S44VSNXQ;0031518000001292816;(00)077777779999991450;(00)177777779999999903;;;912c5718-8b35-450b-80ef-1b0afee09f1d;;;;СКУ-2;ВИСКМИКС  напиток винный вкус виски и меда  0,5л 14%
32N000008MC75BA4HZK0BSS509180010330601FEH7YZZ068ZEPMCMYEKJU1S44VSNXQ;0031518000001292816;(00)077777779999991450;(00)177777779999999903;;;912c5718-8b35-450b-80ef-1b0afee09f1d;;;;СКУ-2;ВИСКМИКС  напиток винный вкус виски и меда  0,5л 14%
23N000008MC75BA4HZK0BSS509180010330298FEH7YZZ068ZEPMCMYEKJU1S44VSNXQ;0031518000001292816;(00)077777779999991450;(00)177777779999999903;;;912c5718-8b35-450b-80ef-1b0afee09f1d;;;;СКУ-2;ВИСКМИКС  напиток винный вкус виски и меда  0,5л 14%
41N000008MC75BA4HZK0BSS509180010330779FEH7YZZ068ZEUCZAYEKJU1S44VSNXQ;0031518000001292816;(00)077777779999991450;(00)177777779999999903;;;912c5718-8b35-450b-80ef-1b0afee09f1d;;;;СКУ-2;ВИСКМИКС  напиток винный вкус виски и меда  0,5л 14%
71N000008MC75BA4HZK0BSS509180010330598FEH7YZZ068ZEUCZAYEKJU1S44VSNXQ;0031518000001292816;(00)077777779999991450;(00)177777779999999903;;;912c5718-8b35-450b-80ef-1b0afee09f1d;;;;СКУ-2;ВИСКМИКС  напиток винный вкус виски и меда  0,5л 14%
70N000008MC75BA4HZK0BSS509180010330679FEH7YZZ068ZEUCZAYEKJU1S44VSNXQ;0031518000001292816;(00)077777779999991450;(00)177777779999999903;;;912c5718-8b35-450b-80ef-1b0afee09f1d;;;;СКУ-2;ВИСКМИКС  напиток винный вкус виски и меда  0,5л 14%
98N000008MC75BA4HZK0BSS509180010330467FEH7YZZ068ZEUCZAYEKJU1S44VSNXQ;0031518000001292816;(00)077777779999991450;(00)177777779999999903;;;912c5718-8b35-450b-80ef-1b0afee09f1d;;;;СКУ-2;ВИСКМИКС  напиток винный вкус виски и меда  0,5л 14%
31N000008MC75BA4HZK0BSS509180010330554FEH7YZZ068ZEUCZAYEKJU1S44VSNXQ;0031518000001292816;(00)077777779999991450;(00)177777779999999903;;;912c5718-8b35-450b-80ef-1b0afee09f1d;;;;СКУ-2;ВИСКМИКС  напиток винный вкус виски и меда  0,5л 14%
19N000008MC75BA4HZK0BSS509180010330996FEH7YZZ068ZEYIFIYEKJU1S44VSNXQ;0031518000001292816;(00)077777779999991450;(00)177777779999999903;;;912c5718-8b35-450b-80ef-1b0afee09f1d;;;;СКУ-2;ВИСКМИКС  напиток винный вкус виски и меда  0,5л 14%
75N000008MC75BA4HZK0BSS509180010330368FEH7YZZ068ZEYIFIYEKJU1S44VSNXQ;0031518000001292816;(00)077777779999991451;(00)177777779999999903;;;912c5718-8b35-450b-80ef-1b0afee09f1d;;;;СКУ-2;ВИСКМИКС  напиток винный вкус виски и меда  0,5л 14%
65N000008MC75BA4HZK0BSS509180010330701FEH7YZZ068ZEYIFIYEKJU1S44VSNXQ;0031518000001292816;(00)077777779999991451;(00)177777779999999903;;;912c5718-8b35-450b-80ef-1b0afee09f1d;;;;СКУ-2;ВИСКМИКС  напиток винный вкус виски и меда  0,5л 14%
16N000008MC75BA4HZK0BSS509180010330728FEH7YZZ068ZEYIFIYEKJU1S44VSNXQ;0031518000001292816;(00)077777779999991451;(00)177777779999999903;;;912c5718-8b35-450b-80ef-1b0afee09f1d;;;;СКУ-2;ВИСКМИКС  напиток винный вкус виски и меда  0,5л 14%
55N000008MC75BA4HZK0BSS509180010330979FEH7YZZ068ZEYIFIYEKJU1S44VSNXQ;0031518000001292816;(00)077777779999991451;(00)177777779999999903;;;912c5718-8b35-450b-80ef-1b0afee09f1d;;;;СКУ-2;ВИСКМИКС  напиток винный вкус виски и меда  0,5л 14%
90N000008MC75BA4HZK0BSS509180010330430FEH7YZZ068ZEGIFQYEKJU1S44VSNXQ;0031518000001292816;(00)077777779999991451;(00)177777779999999903;;;912c5718-8b35-450b-80ef-1b0afee09f1d;;;;СКУ-2;ВИСКМИКС  напиток винный вкус виски и меда  0,5л 14%
41N000008MC75BA4HZK0BSS509180010330845FEH7YZZ068ZEGIFQYEKJU1S44VSNXQ;0031518000001292816;(00)077777779999991451;(00)177777779999999903;;;912c5718-8b35-450b-80ef-1b0afee09f1d;;;;СКУ-2;ВИСКМИКС  напиток винный вкус виски и меда  0,5л 14%
11N000008MC75BA4HZK0BSS509180010330784FEH7YZZ068ZEGIFQYEKJU1S44VSNXQ;0031518000001292816;(00)077777779999991451;(00)177777779999999903;;;912c5718-8b35-450b-80ef-1b0afee09f1d;;;;СКУ-2;ВИСКМИКС  напиток винный вкус виски и меда  0,5л 14%
74N000008MC75BA4HZK0BSS509180010330421FEH7YZZ068ZEPAKBYEKJU1S44VSNXQ;0031518000001292816;(00)077777779999991451;(00)177777779999999903;;;912c5718-8b35-450b-80ef-1b0afee09f1d;;;;СКУ-2;ВИСКМИКС  напиток винный вкус виски и меда  0,5л 14%
25N000008MC75BA4HZK0BSS509180010330965FEH7YZZ068ZEPAKBYEKJU1S44VSNXQ;0031518000001292816;(00)077777779999991451;(00)177777779999999903;;;912c5718-8b35-450b-80ef-1b0afee09f1d;;;;СКУ-2;ВИСКМИКС  напиток винный вкус виски и меда  0,5л 14%
54N000008MC75BA4HZK0BSS509180010330397FEH7YZZ068ZEOUWFYEKJU1S44VSNXQ;0031518000001292816;(00)077777779999991451;(00)177777779999999903;;;912c5718-8b35-450b-80ef-1b0afee09f1d;;;;СКУ-2;ВИСКМИКС  напиток винный вкус виски и меда  0,5л 14%
91N000008MC75BA4HZK0BSS509180010330937FEH7YZZ068ZEOUWFYEKJU1S44VSNXQ;0031518000001292816;(00)077777779999991451;(00)177777779999999903;;;912c5718-8b35-450b-80ef-1b0afee09f1d;;;;СКУ-2;ВИСКМИКС  напиток винный вкус виски и меда  0,5л 14%
60N000008MC75BA4HZK0BSS509180010330379FEH7YZZ068ZEOUWFYEKJU1S44VSNXQ;0031518000001292816;(00)077777779999991451;(00)177777779999999903;;;912c5718-8b35-450b-80ef-1b0afee09f1d;;;;СКУ-2;ВИСКМИКС  напиток винный вкус виски и меда  0,5л 14%
65N000008MC75BA4HZK0BSS509180010330367FEH7YZZ068ZEOUWFYEKJU1S44VSNXQ;0031518000001292816;(00)077777779999991451;(00)177777779999999903;;;912c5718-8b35-450b-80ef-1b0afee09f1d;;;;СКУ-2;ВИСКМИКС  напиток винный вкус виски и меда  0,5л 14%
40N000008MC75BA4HZK0BSS509180010330388FEH7YZZ068ZEOUWFYEKJU1S44VSNXQ;0031518000001292816;(00)077777779999991451;(00)177777779999999903;;;912c5718-8b35-450b-80ef-1b0afee09f1d;;;;СКУ-2;ВИСКМИКС  напиток винный вкус виски и меда  0,5л 14%
57N000008MC75BA4HZK0BSS509180010330877FEH7YZZ068ZEVCDBYEKJU1S44VSNXQ;0031518000001292816;(00)077777779999991451;(00)177777779999999903;;;912c5718-8b35-450b-80ef-1b0afee09f1d;;;;СКУ-2;ВИСКМИКС  напиток винный вкус виски и меда  0,5л 14%
12N000008MC75BA4HZK0BSS509180010330276FEH7YZZ068ZEVCDBYEKJU1S44VSNXQ;0031518000001292816;(00)077777779999991451;(00)177777779999999903;;;912c5718-8b35-450b-80ef-1b0afee09f1d;;;;СКУ-2;ВИСКМИКС  напиток винный вкус виски и меда  0,5л 14%
90N000008MC75BA4HZK0BSS509180010330563FEH7YZZ068ZEVCDBYEKJU1S44VSNXQ;0031518000001292816;(00)077777779999991451;(00)177777779999999903;;;912c5718-8b35-450b-80ef-1b0afee09f1d;;;;СКУ-2;ВИСКМИКС  напиток винный вкус виски и меда  0,5л 14%
59N000008MC75BA4HZK0BSS509180010330152FEH7YZZ068ZEVCDBYEKJU1S44VSNXQ;0031518000001292816;(00)077777779999991451;(00)177777779999999903;;;912c5718-8b35-450b-80ef-1b0afee09f1d;;;;СКУ-2;ВИСКМИКС  напиток винный вкус виски и меда  0,5л 14%
97N000008MC75BA4HZK0BSS509180010330902FEH7YZZ068ZEVCDBYEKJU1S44VSNXQ;0031518000001292816;(00)077777779999991451;(00)177777779999999903;;;912c5718-8b35-450b-80ef-1b0afee09f1d;;;;СКУ-2;ВИСКМИКС  напиток винный вкус виски и меда  0,5л 14%
69N000008MC75BA4HZK0BSS509180010330608FEH7YZZ068ZEFQRFYEKJU1S44VSNXQ;0031518000001292816;(00)077777779999991451;(00)177777779999999903;;;912c5718-8b35-450b-80ef-1b0afee09f1d;;;;СКУ-2;ВИСКМИКС  напиток винный вкус виски и меда  0,5л 14%
14N000008MC75BA4HZK0BSS509180010330266FEH7YZZ068ZEFQRFYEKJU1S44VSNXQ;0031518000001292816;(00)077777779999991451;(00)177777779999999903;;;912c5718-8b35-450b-80ef-1b0afee09f1d;;;;СКУ-2;ВИСКМИКС  напиток винный вкус виски и меда  0,5л 14%
37N000008MC75BA4HZK0BSS509180010330991FEH7YZZ068ZEFQRFYEKJU1S44VSNXQ;0031518000001292816;(00)077777779999991451;(00)177777779999999903;;;912c5718-8b35-450b-80ef-1b0afee09f1d;;;;СКУ-2;ВИСКМИКС  напиток винный вкус виски и меда  0,5л 14%
45N000008MC75BA4HZK0BSS509180010330879FEH7YZZ068ZEFQRFYEKJU1S44VSNXQ;0031518000001292816;(00)077777779999991451;(00)177777779999999903;;;912c5718-8b35-450b-80ef-1b0afee09f1d;;;;СКУ-2;ВИСКМИКС  напиток винный вкус виски и меда  0,5л 14%
57N000008MC75BA4HZK0BSS509180010330926FEH7YZZ068ZEFQRFYEKJU1S44VSNXQ;0031518000001292816;(00)077777779999991451;(00)177777779999999903;;;912c5718-8b35-450b-80ef-1b0afee09f1d;;;;СКУ-2;ВИСКМИКС  напиток винный вкус виски и меда  0,5л 14%
91N000008MC75BA4HZK0BSS509180010330685FEH7YZZ068ZEFXBRYEKJU1S44VSNXQ;0031518000001292816;(00)077777779999991451;(00)177777779999999903;;;912c5718-8b35-450b-80ef-1b0afee09f1d;;;;СКУ-2;ВИСКМИКС  напиток винный вкус виски и меда  0,5л 14%
30N000008MC75BA4HZK0BSS509180010330359FEH7YZZ068ZEFXBRYEKJU1S44VSNXQ;0031518000001292816;(00)077777779999991452;(00)177777779999999903;;;912c5718-8b35-450b-80ef-1b0afee09f1d;;;;СКУ-2;ВИСКМИКС  напиток винный вкус виски и меда  0,5л 14%
98N000008MC75BA4HZK0BSS509180010330807FEH7YZZ068ZEFXBRYEKJU1S44VSNXQ;0031518000001292816;(00)077777779999991452;(00)177777779999999903;;;912c5718-8b35-450b-80ef-1b0afee09f1d;;;;СКУ-2;ВИСКМИКС  напиток винный вкус виски и меда  0,5л 14%
17N000008MC75BA4HZK0BSS509180010330830FEH7YZZ068ZEFXBRYEKJU1S44VSNXQ;0031518000001292816;(00)077777779999991452;(00)177777779999999903;;;912c5718-8b35-450b-80ef-1b0afee09f1d;;;;СКУ-2;ВИСКМИКС  напиток винный вкус виски и меда  0,5л 14%
74N000008MC75BA4HZK0BSS509180010330397FEH7YZZ068ZEFXBRYEKJU1S44VSNXQ;0031518000001292816;(00)077777779999991452;(00)177777779999999903;;;912c5718-8b35-450b-80ef-1b0afee09f1d;;;;СКУ-2;ВИСКМИКС  напиток винный вкус виски и меда  0,5л 14%
13N000008MC75BA4HZK0BSS509180010330806FEH7YZZ068ZEBHRFYEKJU1S44VSNXQ;0031518000001292816;(00)077777779999991452;(00)177777779999999903;;;912c5718-8b35-450b-80ef-1b0afee09f1d;;;;СКУ-2;ВИСКМИКС  напиток винный вкус виски и меда  0,5л 14%
41N000008MC75BA4HZK0BSS509180010330282FEH7YZZ068ZEBHRFYEKJU1S44VSNXQ;0031518000001292816;(00)077777779999991452;(00)177777779999999903;;;912c5718-8b35-450b-80ef-1b0afee09f1d;;;;СКУ-2;ВИСКМИКС  напиток винный вкус виски и меда  0,5л 14%
49N000008MC75BA4HZK0BSS509180010330146FEH7YZZ068ZEBHRFYEKJU1S44VSNXQ;0031518000001292816;(00)077777779999991452;(00)177777779999999903;;;912c5718-8b35-450b-80ef-1b0afee09f1d;;;;СКУ-2;ВИСКМИКС  напиток винный вкус виски и меда  0,5л 14%
39N000008MC75BA4HZK0BSS509180010330256FEH7YZZ068ZEBHRFYEKJU1S44VSNXQ;0031518000001292816;(00)077777779999991452;(00)177777779999999903;;;912c5718-8b35-450b-80ef-1b0afee09f1d;;;;СКУ-2;ВИСКМИКС  напиток винный вкус виски и меда  0,5л 14%
92N000008MC75BA4HZK0BSS509180010330560FEH7YZZ068ZEBHRFYEKJU1S44VSNXQ;0031518000001292816;(00)077777779999991452;(00)177777779999999903;;;912c5718-8b35-450b-80ef-1b0afee09f1d;;;;СКУ-2;ВИСКМИКС  напиток винный вкус виски и меда  0,5л 14%
27N000008MC75BA4HZK0BSS509180010330711FEH7YZZ068ZENJRZYEKJU1S44VSNXQ;0031518000001292816;(00)077777779999991452;(00)177777779999999903;;;912c5718-8b35-450b-80ef-1b0afee09f1d;;;;СКУ-2;ВИСКМИКС  напиток винный вкус виски и меда  0,5л 14%
43N000008MC75BA4HZK0BSS509180010330357FEH7YZZ068ZENJRZYEKJU1S44VSNXQ;0031518000001292816;(00)077777779999991452;(00)177777779999999903;;;912c5718-8b35-450b-80ef-1b0afee09f1d;;;;СКУ-2;ВИСКМИКС  напиток винный вкус виски и меда  0,5л 14%
36N000008MC75BA4HZK0BSS509180010330948FEH7YZZ068ZENJRZYEKJU1S44VSNXQ;0031518000001292816;(00)077777779999991452;(00)177777779999999903;;;912c5718-8b35-450b-80ef-1b0afee09f1d;;;;СКУ-2;ВИСКМИКС  напиток винный вкус виски и меда  0,5л 14%
34N000008MC75BA4HZK0BSS509180010330765FEH7YZZ068ZENJRZYEKJU1S44VSNXQ;0031518000001292816;(00)077777779999991452;(00)177777779999999903;;;912c5718-8b35-450b-80ef-1b0afee09f1d;;;;СКУ-2;ВИСКМИКС  напиток винный вкус виски и меда  0,5л 14%
65N000008MC75BA4HZK0BSS509180010330619FEH7YZZ068ZENJRZYEKJU1S44VSNXQ;0031518000001292816;(00)077777779999991452;(00)177777779999999903;;;912c5718-8b35-450b-80ef-1b0afee09f1d;;;;СКУ-2;ВИСКМИКС  напиток винный вкус виски и меда  0,5л 14%
90N000008MC75BA4HZK0BSS509180010330787FEH7YZZ068ZEELFDYEKJU1S44VSNXQ;0031518000001292816;(00)077777779999991452;(00)177777779999999903;;;912c5718-8b35-450b-80ef-1b0afee09f1d;;;;СКУ-2;ВИСКМИКС  напиток винный вкус виски и меда  0,5л 14%
77N000008MC75BA4HZK0BSS509180010330484FEH7YZZ068ZEELFDYEKJU1S44VSNXQ;0031518000001292816;(00)077777779999991452;(00)177777779999999903;;;912c5718-8b35-450b-80ef-1b0afee09f1d;;;;СКУ-2;ВИСКМИКС  напиток винный вкус виски и меда  0,5л 14%
45N000008MC75BA4HZK0BSS509180010330898FEH7YZZ068ZEELFDYEKJU1S44VSNXQ;0031518000001292816;(00)077777779999991452;(00)177777779999999903;;;912c5718-8b35-450b-80ef-1b0afee09f1d;;;;СКУ-2;ВИСКМИКС  напиток винный вкус виски и меда  0,5л 14%
66N000008MC75BA4HZK0BSS509180010330771FEH7YZZ068ZEELFDYEKJU1S44VSNXQ;0031518000001292816;(00)077777779999991452;(00)177777779999999903;;;912c5718-8b35-450b-80ef-1b0afee09f1d;;;;СКУ-2;ВИСКМИКС  напиток винный вкус виски и меда  0,5л 14%
26N000008MC75BA4HZK0BSS509180010330214FEH7YZZ068ZEELFDYEKJU1S44VSNXQ;0031518000001292816;(00)077777779999991452;(00)177777779999999903;;;912c5718-8b35-450b-80ef-1b0afee09f1d;;;;СКУ-2;ВИСКМИКС  напиток винный вкус виски и меда  0,5л 14%
47N000008MC75BA4HZK0BSS509180010330777FEH7YZZ068ZEWOKNYEKJU1S44VSNXQ;0031518000001292816;(00)077777779999991452;(00)177777779999999903;;;912c5718-8b35-450b-80ef-1b0afee09f1d;;;;СКУ-2;ВИСКМИКС  напиток винный вкус виски и меда  0,5л 14%
38N000008MC75BA4HZK0BSS509180010330694FEH7YZZ068ZEWOKNYEKJU1S44VSNXQ;0031518000001292816;(00)077777779999991452;(00)177777779999999903;;;912c5718-8b35-450b-80ef-1b0afee09f1d;;;;СКУ-2;ВИСКМИКС  напиток винный вкус виски и меда  0,5л 14%
85N000008MC75BA4HZK0BSS509180010330897FEH7YZZ068ZEWOKNYEKJU1S44VSNXQ;0031518000001292816;(00)077777779999991452;(00)177777779999999903;;;912c5718-8b35-450b-80ef-1b0afee09f1d;;;;СКУ-2;ВИСКМИКС  напиток винный вкус виски и меда  0,5л 14%
28N000008MC75BA4HZK0BSS509180010330867FEH7YZZ068ZEWOKNYEKJU1S44VSNXQ;0031518000001292816;(00)077777779999991452;(00)177777779999999903;;;912c5718-8b35-450b-80ef-1b0afee09f1d;;;;СКУ-2;ВИСКМИКС  напиток винный вкус виски и меда  0,5л 14%
75N000008MC75BA4HZK0BSS509180010330348FEH7YZZ068ZEWOKNYEKJU1S44VSNXQ;0031518000001292816;(00)077777779999991452;(00)177777779999999903;;;912c5718-8b35-450b-80ef-1b0afee09f1d;;;;СКУ-2;ВИСКМИКС  напиток винный вкус виски и меда  0,5л 14%
68N000008MC75BA4HZK0BSS509180010330323FEH7YZZ068ZEMFAHYEKJU1S44VSNXQ;0031518000001292816;(00)077777779999991452;(00)177777779999999903;;;912c5718-8b35-450b-80ef-1b0afee09f1d;;;;СКУ-2;ВИСКМИКС  напиток винный вкус виски и меда  0,5л 14%
93N000008MC75BA4HZK0BSS509180010330135FEH7YZZ068ZEMFAHYEKJU1S44VSNXQ;0031518000001292816;(00)077777779999991452;(00)177777779999999903;;;912c5718-8b35-450b-80ef-1b0afee09f1d;;;;СКУ-2;ВИСКМИКС  напиток винный вкус виски и меда  0,5л 14%
74N000008MC75BA4HZK0BSS509180010330324FEH7YZZ068ZEMFAHYEKJU1S44VSNXQ;0031518000001292816;(00)077777779999991452;(00)177777779999999903;;;912c5718-8b35-450b-80ef-1b0afee09f1d;;;;СКУ-2;ВИСКМИКС  напиток винный вкус виски и меда  0,5л 14%
34N000008MC75BA4HZK0BSS509180010330959FEH7YZZ068ZEMFAHYEKJU1S44VSNXQ;0031518000001292816;(00)077777779999991452;(00)177777779999999903;;;912c5718-8b35-450b-80ef-1b0afee09f1d;;;;СКУ-2;ВИСКМИКС  напиток винный вкус виски и меда  0,5л 14%
97N000008MC75BA4HZK0BSS509180010330157FEH7YZZ068ZEMFAHYEKJU1S44VSNXQ;0031518000001292816;(00)077777779999991452;(00)177777779999999903;;;912c5718-8b35-450b-80ef-1b0afee09f1d;;;;СКУ-2;ВИСКМИКС  напиток винный вкус виски и меда  0,5л 14%
55N000008MC75BA4HZK0BSS509180010330419FEH7YZZ068ZEXWQRYEKJU1S44VSNXQ;0031518000001292816;(00)077777779999991452;(00)177777779999999903;;;912c5718-8b35-450b-80ef-1b0afee09f1d;;;;СКУ-2;ВИСКМИКС  напиток винный вкус виски и меда  0,5л 14%
26N000008MC75BA4HZK0BSS509180010330247FEH7YZZ068ZEXWQRYEKJU1S44VSNXQ;0031518000001292816;(00)077777779999991452;(00)177777779999999903;;;912c5718-8b35-450b-80ef-1b0afee09f1d;;;;СКУ-2;ВИСКМИКС  напиток винный вкус виски и меда  0,5л 14%
47N000008MC75BA4HZK0BSS509180010330355FEH7YZZ068ZEXWQRYEKJU1S44VSNXQ;0031518000001292816;(00)077777779999991452;(00)177777779999999903;;;912c5718-8b35-450b-80ef-1b0afee09f1d;;;;СКУ-2;ВИСКМИКС  напиток винный вкус виски и меда  0,5л 14%
12N000008MC75BA4HZK0BSS509180010330943FEH7YZZ068ZEXWQRYEKJU1S44VSNXQ;0031518000001292816;(00)077777779999991452;(00)177777779999999903;;;912c5718-8b35-450b-80ef-1b0afee09f1d;;;;СКУ-2;ВИСКМИКС  напиток винный вкус виски и меда  0,5л 14%
81N000008MC75BA4HZK0BSS509180010330606FEH7YZZ068ZEXWQRYEKJU1S44VSNXQ;0031518000001292816;(00)077777779999991452;(00)177777779999999903;;;912c5718-8b35-450b-80ef-1b0afee09f1d;;;;СКУ-2;ВИСКМИКС  напиток винный вкус виски и меда  0,5л 14%
46N000008MC75BA4HZK0BSS509180010330636FEH7YZZ068ZEOGPHYEKJU1S44VSNXQ;0031518000001292816;(00)077777779999991452;(00)177777779999999903;;;912c5718-8b35-450b-80ef-1b0afee09f1d;;;;СКУ-2;ВИСКМИКС  напиток винный вкус виски и меда  0,5л 14%
96N000008MC75BA4HZK0BSS509180010330829FEH7YZZ068ZEOGPHYEKJU1S44VSNXQ;0031518000001292816;(00)077777779999991452;(00)177777779999999903;;;912c5718-8b35-450b-80ef-1b0afee09f1d;;;;СКУ-2;ВИСКМИКС  напиток винный вкус виски и меда  0,5л 14%
17N000008MC75BA4HZK0BSS509180010330508FEH7YZZ068ZEOGPHYEKJU1S44VSNXQ;0031518000001292816;(00)077777779999991452;(00)177777779999999903;;;912c5718-8b35-450b-80ef-1b0afee09f1d;;;;СКУ-2;ВИСКМИКС  напиток винный вкус виски и меда  0,5л 14%
41N000008MC75BA4HZK0BSS509180010330744FEH7YZZ068ZEOGPHYEKJU1S44VSNXQ;0031518000001292816;(00)077777779999991452;(00)177777779999999903;;;912c5718-8b35-450b-80ef-1b0afee09f1d;;;;СКУ-2;ВИСКМИКС  напиток винный вкус виски и меда  0,5л 14%
47N000008MC75BA4HZK0BSS509180010330472FEH7YZZ068ZEOGPHYEKJU1S44VSNXQ;0031518000001292816;(00)077777779999991452;(00)177777779999999903;;;912c5718-8b35-450b-80ef-1b0afee09f1d;;;;СКУ-2;ВИСКМИКС  напиток винный вкус виски и меда  0,5л 14%
75N000008MC75BA4HZK0BSS509180010330488FEH7YZZ068ZEKTAFYEKJU1S44VSNXQ;0031518000001292816;(00)077777779999991452;(00)177777779999999903;;;912c5718-8b35-450b-80ef-1b0afee09f1d;;;;СКУ-2;ВИСКМИКС  напиток винный вкус виски и меда  0,5л 14%
10N000008MC75BA4HZK0BSS509180010330426FEH7YZZ068ZEKTAFYEKJU1S44VSNXQ;0031518000001292816;(00)077777779999991452;(00)177777779999999903;;;912c5718-8b35-450b-80ef-1b0afee09f1d;;;;СКУ-2;ВИСКМИКС  напиток винный вкус виски и меда  0,5л 14%
91N000008MC75BA4HZK0BSS509180010330697FEH7YZZ068ZEKTAFYEKJU1S44VSNXQ;0031518000001292816;(00)077777779999991452;(00)177777779999999903;;;912c5718-8b35-450b-80ef-1b0afee09f1d;;;;СКУ-2;ВИСКМИКС  напиток винный вкус виски и меда  0,5л 14%
83N000008MC75BA4HZK0BSS509180010330757FEH7YZZ068ZEKTAFYEKJU1S44VSNXQ;0031518000001292816;(00)077777779999991452;(00)177777779999999903;;;912c5718-8b35-450b-80ef-1b0afee09f1d;;;;СКУ-2;ВИСКМИКС  напиток винный вкус виски и меда  0,5л 14%
72N000008MC75BA4HZK0BSS509180010330248FEH7YZZ068ZEKTAFYEKJU1S44VSNXQ;0031518000001292816;(00)077777779999991452;(00)177777779999999903;;;912c5718-8b35-450b-80ef-1b0afee09f1d;;;;СКУ-2;ВИСКМИКС  напиток винный вкус виски и меда  0,5л 14%
64N000008MC75BA4HZK0BSS509180010330709FEH7YZZ068ZEXWJTYEKJU1S44VSNXQ;0031518000001292816;(00)077777779999991452;(00)177777779999999903;;;912c5718-8b35-450b-80ef-1b0afee09f1d;;;;СКУ-2;ВИСКМИКС  напиток винный вкус виски и меда  0,5л 14%
77N000008MC75BA4HZK0BSS509180010330233FEH7YZZ068ZEXWJTYEKJU1S44VSNXQ;0031518000001292816;(00)077777779999991452;(00)177777779999999903;;;912c5718-8b35-450b-80ef-1b0afee09f1d;;;;СКУ-2;ВИСКМИКС  напиток винный вкус виски и меда  0,5л 14%
64N000008MC75BA4HZK0BSS509180010330178FEH7YZZ068ZEXWJTYEKJU1S44VSNXQ;0031518000001292816;(00)077777779999991452;(00)177777779999999903;;;912c5718-8b35-450b-80ef-1b0afee09f1d;;;;СКУ-2;ВИСКМИКС  напиток винный вкус виски и меда  0,5л 14%
60N000008MC75BA4HZK0BSS509180010330260FEH7YZZ068ZEXWJTYEKJU1S44VSNXQ;0031518000001292816;(00)077777779999991452;(00)177777779999999903;;;912c5718-8b35-450b-80ef-1b0afee09f1d;;;;СКУ-2;ВИСКМИКС  напиток винный вкус виски и меда  0,5л 14%
30N000008MC75BA4HZK0BSS509180010330624FEH7YZZ068ZEXWJTYEKJU1S44VSNXQ;0031518000001292816;(00)077777779999991452;(00)177777779999999903;;;912c5718-8b35-450b-80ef-1b0afee09f1d;;;;СКУ-2;ВИСКМИКС  напиток винный вкус виски и меда  0,5л 14%
86N000008MC75BA4HZK0BSS509180010330346FEH7YZZ068ZEEECOYEKJU1S44VSNXQ;0031518000001292816;(00)077777779999991452;(00)177777779999999903;;;912c5718-8b35-450b-80ef-1b0afee09f1d;;;;СКУ-2;ВИСКМИКС  напиток винный вкус виски и меда  0,5л 14%
14N000008MC75BA4HZK0BSS509180010330264FEH7YZZ068ZEEECOYEKJU1S44VSNXQ;0031518000001292816;(00)077777779999991452;(00)177777779999999903;;;912c5718-8b35-450b-80ef-1b0afee09f1d;;;;СКУ-2;ВИСКМИКС  напиток винный вкус виски и меда  0,5л 14%
86N000008MC75BA4HZK0BSS509180010330168FEH7YZZ068ZEEECOYEKJU1S44VSNXQ;0031518000001292816;(00)077777779999991452;(00)177777779999999903;;;912c5718-8b35-450b-80ef-1b0afee09f1d;;;;СКУ-2;ВИСКМИКС  напиток винный вкус виски и меда  0,5л 14%
33N000008MC75BA4HZK0BSS509180010330226FEH7YZZ068ZEEECOYEKJU1S44VSNXQ;0031518000001292816;(00)077777779999991452;(00)177777779999999903;;;912c5718-8b35-450b-80ef-1b0afee09f1d;;;;СКУ-2;ВИСКМИКС  напиток винный вкус виски и меда  0,5л 14%
94N000008MC75BA4HZK0BSS509180010330352FEH7YZZ068ZEEECOYEKJU1S44VSNXQ;0031518000001292816;(00)077777779999991452;(00)177777779999999903;;;912c5718-8b35-450b-80ef-1b0afee09f1d;;;;СКУ-2;ВИСКМИКС  напиток винный вкус виски и меда  0,5л 14%
88N000008MC75BA4HZK0BSS509180010330610FEH7YZZ068ZEZGTDYEKJU1S44VSNXQ;0031518000001292816;(00)077777779999991452;(00)177777779999999903;;;912c5718-8b35-450b-80ef-1b0afee09f1d;;;;СКУ-2;ВИСКМИКС  напиток винный вкус виски и меда  0,5л 14%
57N000008MC75BA4HZK0BSS509180010330625FEH7YZZ068ZEZGTDYEKJU1S44VSNXQ;0031518000001292816;(00)077777779999991452;(00)177777779999999903;;;912c5718-8b35-450b-80ef-1b0afee09f1d;;;;СКУ-2;ВИСКМИКС  напиток винный вкус виски и меда  0,5л 14%
37N000008MC75BA4HZK0BSS509180010330184FEH7YZZ068ZEZGTDYEKJU1S44VSNXQ;0031518000001292816;(00)077777779999991452;(00)177777779999999903;;;912c5718-8b35-450b-80ef-1b0afee09f1d;;;;СКУ-2;ВИСКМИКС  напиток винный вкус виски и меда  0,5л 14%
40N000008MC75BA4HZK0BSS509180010330849FEH7YZZ068ZEZGTDYEKJU1S44VSNXQ;0031518000001292816;(00)077777779999991452;(00)177777779999999903;;;912c5718-8b35-450b-80ef-1b0afee09f1d;;;;СКУ-2;ВИСКМИКС  напиток винный вкус виски и меда  0,5л 14%
31N000008MC75BA4HZK0BSS509180010330787FEH7YZZ068ZEZGTDYEKJU1S44VSNXQ;0031518000001292816;(00)077777779999991452;(00)177777779999999903;;;912c5718-8b35-450b-80ef-1b0afee09f1d;;;;СКУ-2;ВИСКМИКС  напиток винный вкус виски и меда  0,5л 14%
50N000008MC75BA4HZK0BSS509180010330376FEH7YZZ068ZEZAJKYEKJU1S44VSNXQ;0031518000001292816;(00)077777779999991452;(00)177777779999999903;;;912c5718-8b35-450b-80ef-1b0afee09f1d;;;;СКУ-2;ВИСКМИКС  напиток винный вкус виски и меда  0,5л 14%
31N000008MC75BA4HZK0BSS509180010330681FEH7YZZ068ZEZAJKYEKJU1S44VSNXQ;0031518000001292816;(00)077777779999991452;(00)177777779999999903;;;912c5718-8b35-450b-80ef-1b0afee09f1d;;;;СКУ-2;ВИСКМИКС  напиток винный вкус виски и меда  0,5л 14%
94N000008MC75BA4HZK0BSS509180010330763FEH7YZZ068ZEZAJKYEKJU1S44VSNXQ;0031518000001292816;(00)077777779999991452;(00)177777779999999903;;;912c5718-8b35-450b-80ef-1b0afee09f1d;;;;СКУ-2;ВИСКМИКС  напиток винный вкус виски и меда  0,5л 14%
84N000008MC75BA4HZK0BSS509180010330853FEH7YZZ068ZEZAJKYEKJU1S44VSNXQ;0031518000001292816;(00)077777779999991452;(00)177777779999999903;;;912c5718-8b35-450b-80ef-1b0afee09f1d;;;;СКУ-2;ВИСКМИКС  напиток винный вкус виски и меда  0,5л 14%
27N000008MC75BA4HZK0BSS509180010330115FEH7YZZ068ZEZAJKYEKJU1S44VSNXQ;0031518000001292816;(00)077777779999991452;(00)177777779999999903;;;912c5718-8b35-450b-80ef-1b0afee09f1d;;;;СКУ-2;ВИСКМИКС  напиток винный вкус виски и меда  0,5л 14%
88N000008MC75BA4HZK0BSS509180010330277FEH7YZZ068ZEJJPDYEKJU1S44VSNXQ;0031518000001292816;(00)077777779999991452;(00)177777779999999903;;;912c5718-8b35-450b-80ef-1b0afee09f1d;;;;СКУ-2;ВИСКМИКС  напиток винный вкус виски и меда  0,5л 14%
52N000008MC75BA4HZK0BSS509180010330861FEH7YZZ068ZEJJPDYEKJU1S44VSNXQ;0031518000001292816;(00)077777779999991452;(00)177777779999999903;;;912c5718-8b35-450b-80ef-1b0afee09f1d;;;;СКУ-2;ВИСКМИКС  напиток винный вкус виски и меда  0,5л 14%
58N000008MC75BA4HZK0BSS509180010330532FEH7YZZ068ZEJJPDYEKJU1S44VSNXQ;0031518000001292816;(00)077777779999991452;(00)177777779999999903;;;912c5718-8b35-450b-80ef-1b0afee09f1d;;;;СКУ-2;ВИСКМИКС  напиток винный вкус виски и меда  0,5л 14%
42N000008MC75BA4HZK0BSS509180010330851FEH7YZZ068ZEJJPDYEKJU1S44VSNXQ;0031518000001292816;(00)077777779999991452;(00)177777779999999903;;;912c5718-8b35-450b-80ef-1b0afee09f1d;;;;СКУ-2;ВИСКМИКС  напиток винный вкус виски и меда  0,5л 14%
54N000008MC75BA4HZK0BSS509180010330866FEH7YZZ068ZEJJPDYEKJU1S44VSNXQ;0031518000001292816;(00)077777779999991452;(00)177777779999999903;;;912c5718-8b35-450b-80ef-1b0afee09f1d;;;;СКУ-2;ВИСКМИКС  напиток винный вкус виски и меда  0,5л 14%
45N000008MC75BA4HZK0BSS509180010330725FEH7YZZ068ZEDTGJYEKJU1S44VSNXQ;0031518000001292816;(00)077777779999991452;(00)177777779999999903;;;912c5718-8b35-450b-80ef-1b0afee09f1d;;;;СКУ-2;ВИСКМИКС  напиток винный вкус виски и меда  0,5л 14%
79N000008MC75BA4HZK0BSS509180010330492FEH7YZZ068ZEDTGJYEKJU1S44VSNXQ;0031518000001292816;(00)077777779999991452;(00)177777779999999903;;;912c5718-8b35-450b-80ef-1b0afee09f1d;;;;СКУ-2;ВИСКМИКС  напиток винный вкус виски и меда  0,5л 14%
34N000008MC75BA4HZK0BSS509180010330153FEH7YZZ068ZEDTGJYEKJU1S44VSNXQ;0031518000001292816;(00)077777779999991452;(00)177777779999999903;;;912c5718-8b35-450b-80ef-1b0afee09f1d;;;;СКУ-2;ВИСКМИКС  напиток винный вкус виски и меда  0,5л 14%
22N000008MC75BA4HZK0BSS509180010330268FEH7YZZ068ZEDTGJYEKJU1S44VSNXQ;0031518000001292816;(00)077777779999991452;(00)177777779999999903;;;912c5718-8b35-450b-80ef-1b0afee09f1d;;;;СКУ-2;ВИСКМИКС  напиток винный вкус виски и меда  0,5л 14%
83N000008MC75BA4HZK0BSS509180010330578FEH7YZZ068ZEDTGJYEKJU1S44VSNXQ;0031518000001292816;(00)077777779999991452;(00)177777779999999903;;;912c5718-8b35-450b-80ef-1b0afee09f1d;;;;СКУ-2;ВИСКМИКС  напиток винный вкус виски и меда  0,5л 14%
75N000008MC75BA4HZK0BSS509180010330760FEH7YZZ068ZEAUIFYEKJU1S44VSNXQ;0031518000001292816;(00)077777779999991452;(00)177777779999999903;;;912c5718-8b35-450b-80ef-1b0afee09f1d;;;;СКУ-2;ВИСКМИКС  напиток винный вкус виски и меда  0,5л 14%
30N000004928QEXGHCV0BSS509180010330492FEH7YZZ068ZEAPGQYEKJU1S44VSNXQ;0015545000002458847;;;;;0b4389ad-c7d9-46f4-809f-e2f1d9920b1a;;;;СКУ-1;ЧИСТЫЙ СОСТАВ ВОДКАЯ  40% 0,25Л
92N000004928QEXGHCV0BSS509180010330945FEH7YZZ068ZEAPGQYEKJU1S44VSNXQ;0015545000002458847;;;;;0b4389ad-c7d9-46f4-809f-e2f1d9920b1a;;;;СКУ-1;ЧИСТЫЙ СОСТАВ ВОДКАЯ  40% 0,25Л
44N000004928QEXGHCV0BSS509180010330730FEH7YZZ068ZEAPGQYEKJU1S44VSNXQ;0015545000002458847;;;;;0b4389ad-c7d9-46f4-809f-e2f1d9920b1a;;;;СКУ-1;ЧИСТЫЙ СОСТАВ ВОДКАЯ  40% 0,25Л
17N000004928QEXGHCV0BSS509180010330721FEH7YZZ068ZEAPGQYEKJU1S44VSNXQ;0015545000002458847;;;;;0b4389ad-c7d9-46f4-809f-e2f1d9920b1a;;;;СКУ-1;ЧИСТЫЙ СОСТАВ ВОДКАЯ  40% 0,25Л
12N000004928QEXGHCV0BSS509180010330854FEH7YZZ068ZEAPGQYEKJU1S44VSNXQ;0015545000002458847;;;;;0b4389ad-c7d9-46f4-809f-e2f1d9920b1a;;;;СКУ-1;ЧИСТЫЙ СОСТАВ ВОДКАЯ  40% 0,25Л
73N000004928QEXGHCV0BSS509180010330561FEH7YZZ068ZEGEIIYEKJU1S44VSNXQ;0015545000002458847;;;;;0b4389ad-c7d9-46f4-809f-e2f1d9920b1a;;;;СКУ-1;ЧИСТЫЙ СОСТАВ ВОДКАЯ  40% 0,25Л
39N000004928QEXGHCV0BSS509180010330454FEH7YZZ068ZEGEIIYEKJU1S44VSNXQ;0015545000002458847;;;;;0b4389ad-c7d9-46f4-809f-e2f1d9920b1a;;;;СКУ-1;ЧИСТЫЙ СОСТАВ ВОДКАЯ  40% 0,25Л
42N000004928QEXGHCV0BSS509180010330786FEH7YZZ068ZEGEIIYEKJU1S44VSNXQ;0015545000002458847;;;;;0b4389ad-c7d9-46f4-809f-e2f1d9920b1a;;;;СКУ-1;ЧИСТЫЙ СОСТАВ ВОДКАЯ  40% 0,25Л
55N000004928QEXGHCV0BSS509180010330827FEH7YZZ068ZEGEIIYEKJU1S44VSNXQ;0015545000002458847;;;;;0b4389ad-c7d9-46f4-809f-e2f1d9920b1a;;;;СКУ-1;ЧИСТЫЙ СОСТАВ ВОДКАЯ  40% 0,25Л
43N000004928QEXGHCV0BSS509180010330909FEH7YZZ068ZEGEIIYEKJU1S44VSNXQ;0015545000002458847;;;;;0b4389ad-c7d9-46f4-809f-e2f1d9920b1a;;;;СКУ-1;ЧИСТЫЙ СОСТАВ ВОДКАЯ  40% 0,25Л
62N000004928QEXGHCV0BSS509180010330693FEH7YZZ068ZETOPGYEKJU1S44VSNXQ;0015545000002458847;;;;;0b4389ad-c7d9-46f4-809f-e2f1d9920b1a;;;;СКУ-1;ЧИСТЫЙ СОСТАВ ВОДКАЯ  40% 0,25Л
10N000004928QEXGHCV0BSS509180010330709FEH7YZZ068ZETOPGYEKJU1S44VSNXQ;0015545000002458847;;;;;0b4389ad-c7d9-46f4-809f-e2f1d9920b1a;;;;СКУ-1;ЧИСТЫЙ СОСТАВ ВОДКАЯ  40% 0,25Л
34N000004928QEXGHCV0BSS509180010330246FEH7YZZ068ZETOPGYEKJU1S44VSNXQ;0015545000002458847;;;;;0b4389ad-c7d9-46f4-809f-e2f1d9920b1a;;;;СКУ-1;ЧИСТЫЙ СОСТАВ ВОДКАЯ  40% 0,25Л
32N000004928QEXGHCV0BSS509180010330116FEH7YZZ068ZETOPGYEKJU1S44VSNXQ;0015545000002458847;;;;;0b4389ad-c7d9-46f4-809f-e2f1d9920b1a;;;;СКУ-1;ЧИСТЫЙ СОСТАВ ВОДКАЯ  40% 0,25Л
74N000004928QEXGHCV0BSS509180010330988FEH7YZZ068ZETOPGYEKJU1S44VSNXQ;0015545000002458847;;;;;0b4389ad-c7d9-46f4-809f-e2f1d9920b1a;;;;СКУ-1;ЧИСТЫЙ СОСТАВ ВОДКАЯ  40% 0,25Л
49N000004928QEXGHCV0BSS509180010330962FEH7YZZ068ZEOMAHYEKJU1S44VSNXQ;0015545000002458847;;;;;0b4389ad-c7d9-46f4-809f-e2f1d9920b1a;;;;СКУ-1;ЧИСТЫЙ СОСТАВ ВОДКАЯ  40% 0,25Л
64N000004928QEXGHCV0BSS509180010330443FEH7YZZ068ZEOMAHYEKJU1S44VSNXQ;0015545000002458847;;;;;0b4389ad-c7d9-46f4-809f-e2f1d9920b1a;;;;СКУ-1;ЧИСТЫЙ СОСТАВ ВОДКАЯ  40% 0,25Л
65N000004928QEXGHCV0BSS509180010330968FEH7YZZ068ZEXFFRYEKJU1S44VSNXQ;0015545000002458847;;;;;0b4389ad-c7d9-46f4-809f-e2f1d9920b1a;;;;СКУ-1;ЧИСТЫЙ СОСТАВ ВОДКАЯ  40% 0,25Л
77N000004928QEXGHCV0BSS509180010330859FEH7YZZ068ZEXFFRYEKJU1S44VSNXQ;0015545000002458847;;;;;0b4389ad-c7d9-46f4-809f-e2f1d9920b1a;;;;СКУ-1;ЧИСТЫЙ СОСТАВ ВОДКАЯ  40% 0,25Л
13N000004928QEXGHCV0BSS509180010330619FEH7YZZ068ZEXFFRYEKJU1S44VSNXQ;0015545000002458847;;;;;0b4389ad-c7d9-46f4-809f-e2f1d9920b1a;;;;СКУ-1;ЧИСТЫЙ СОСТАВ ВОДКАЯ  40% 0,25Л
95N000004928QEXGHCV0BSS509180010330514FEH7YZZ068ZELISJYEKJU1S44VSNXQ;0015545000002458847;;;;;0b4389ad-c7d9-46f4-809f-e2f1d9920b1a;;;;СКУ-1;ЧИСТЫЙ СОСТАВ ВОДКАЯ  40% 0,25Л
23N000004928QEXGHCV0BSS509180010330988FEH7YZZ068ZELISJYEKJU1S44VSNXQ;0015545000002458847;;;;;0b4389ad-c7d9-46f4-809f-e2f1d9920b1a;;;;СКУ-1;ЧИСТЫЙ СОСТАВ ВОДКАЯ  40% 0,25Л
82N000004928QEXGHCV0BSS509180010330313FEH7YZZ068ZELISJYEKJU1S44VSNXQ;0015545000002458847;;;;;0b4389ad-c7d9-46f4-809f-e2f1d9920b1a;;;;СКУ-1;ЧИСТЫЙ СОСТАВ ВОДКАЯ  40% 0,25Л
45N000004928QEXGHCV0BSS509180010330593FEH7YZZ068ZELISJYEKJU1S44VSNXQ;0015545000002458847;;;;;0b4389ad-c7d9-46f4-809f-e2f1d9920b1a;;;;СКУ-1;ЧИСТЫЙ СОСТАВ ВОДКАЯ  40% 0,25Л
19N000004928QEXGHCV0BSS509180010330434FEH7YZZ068ZELISJYEKJU1S44VSNXQ;0015545000002458847;;;;;0b4389ad-c7d9-46f4-809f-e2f1d9920b1a;;;;СКУ-1;ЧИСТЫЙ СОСТАВ ВОДКАЯ  40% 0,25Л
13N000004928QEXGHCV0BSS509180010330308FEH7YZZ068ZEIXWUYEKJU1S44VSNXQ;0015545000002458847;;;;;0b4389ad-c7d9-46f4-809f-e2f1d9920b1a;;;;СКУ-1;ЧИСТЫЙ СОСТАВ ВОДКАЯ  40% 0,25Л
13N000004928QEXGHCV0BSS509180010330401FEH7YZZ068ZEIXWUYEKJU1S44VSNXQ;0015545000002458847;;;;;0b4389ad-c7d9-46f4-809f-e2f1d9920b1a;;;;СКУ-1;ЧИСТЫЙ СОСТАВ ВОДКАЯ  40% 0,25Л
57N000004928QEXGHCV0BSS509180010330621FEH7YZZ068ZEIXWUYEKJU1S44VSNXQ;0015545000002458847;;;;;0b4389ad-c7d9-46f4-809f-e2f1d9920b1a;;;;СКУ-1;ЧИСТЫЙ СОСТАВ ВОДКАЯ  40% 0,25Л
47N000004928QEXGHCV0BSS509180010330338FEH7YZZ068ZEIXWUYEKJU1S44VSNXQ;0015545000002458847;;;;;0b4389ad-c7d9-46f4-809f-e2f1d9920b1a;;;;СКУ-1;ЧИСТЫЙ СОСТАВ ВОДКАЯ  40% 0,25Л
69N000004928QEXGHCV0BSS509180010330319FEH7YZZ068ZEIXWUYEKJU1S44VSNXQ;0015545000002458847;;;;;0b4389ad-c7d9-46f4-809f-e2f1d9920b1a;;;;СКУ-1;ЧИСТЫЙ СОСТАВ ВОДКАЯ  40% 0,25Л
49N000004928QEXGHCV0BSS509180010330179FEH7YZZ068ZEAKHGYEKJU1S44VSNXQ;0015545000002458847;;;;;0b4389ad-c7d9-46f4-809f-e2f1d9920b1a;;;;СКУ-1;ЧИСТЫЙ СОСТАВ ВОДКАЯ  40% 0,25Л
96N000004928QEXGHCV0BSS509180010330148FEH7YZZ068ZEAKHGYEKJU1S44VSNXQ;0015545000002458847;;;;;0b4389ad-c7d9-46f4-809f-e2f1d9920b1a;;;;СКУ-1;ЧИСТЫЙ СОСТАВ ВОДКАЯ  40% 0,25Л
44N000004928QEXGHCV0BSS509180010330780FEH7YZZ068ZEAKHGYEKJU1S44VSNXQ;0015545000002458847;;;;;0b4389ad-c7d9-46f4-809f-e2f1d9920b1a;;;;СКУ-1;ЧИСТЫЙ СОСТАВ ВОДКАЯ  40% 0,25Л
90N000004928QEXGHCV0BSS509180010330963FEH7YZZ068ZEAKHGYEKJU1S44VSNXQ;0015545000002458847;;;;;0b4389ad-c7d9-46f4-809f-e2f1d9920b1a;;;;СКУ-1;ЧИСТЫЙ СОСТАВ ВОДКАЯ  40% 0,25Л
78N000004928QEXGHCV0BSS509180010330467FEH7YZZ068ZEAKHGYEKJU1S44VSNXQ;0015545000002458847;;;;;0b4389ad-c7d9-46f4-809f-e2f1d9920b1a;;;;СКУ-1;ЧИСТЫЙ СОСТАВ ВОДКАЯ  40% 0,25Л
98N000004928QEXGHCV0BSS509180010330707FEH7YZZ068ZEQCSGYEKJU1S44VSNXQ;0015545000002458847;;;;;0b4389ad-c7d9-46f4-809f-e2f1d9920b1a;;;;СКУ-1;ЧИСТЫЙ СОСТАВ ВОДКАЯ  40% 0,25Л
78N000004928QEXGHCV0BSS509180010330820FEH7YZZ068ZEQCSGYEKJU1S44VSNXQ;0015545000002458847;;;;;0b4389ad-c7d9-46f4-809f-e2f1d9920b1a;;;;СКУ-1;ЧИСТЫЙ СОСТАВ ВОДКАЯ  40% 0,25Л
93N000004928QEXGHCV0BSS509180010330234FEH7YZZ068ZEQCSGYEKJU1S44VSNXQ;0015545000002458847;;;;;0b4389ad-c7d9-46f4-809f-e2f1d9920b1a;;;;СКУ-1;ЧИСТЫЙ СОСТАВ ВОДКАЯ  40% 0,25Л
55N000004928QEXGHCV0BSS509180010330130FEH7YZZ068ZEQCSGYEKJU1S44VSNXQ;0015545000002458847;;;;;0b4389ad-c7d9-46f4-809f-e2f1d9920b1a;;;;СКУ-1;ЧИСТЫЙ СОСТАВ ВОДКАЯ  40% 0,25Л
86N000004928QEXGHCV0BSS509180010330147FEH7YZZ068ZEQCSGYEKJU1S44VSNXQ;0015545000002458847;;;;;0b4389ad-c7d9-46f4-809f-e2f1d9920b1a;;;;СКУ-1;ЧИСТЫЙ СОСТАВ ВОДКАЯ  40% 0,25Л
77N000004928QEXGHCV0BSS509180010330744FEH7YZZ068ZENXYPYEKJU1S44VSNXQ;0015545000002458847;;;;;0b4389ad-c7d9-46f4-809f-e2f1d9920b1a;;;;СКУ-1;ЧИСТЫЙ СОСТАВ ВОДКАЯ  40% 0,25Л
90N000004928QEXGHCV0BSS509180010330427FEH7YZZ068ZENXYPYEKJU1S44VSNXQ;0015545000002458847;;;;;0b4389ad-c7d9-46f4-809f-e2f1d9920b1a;;;;СКУ-1;ЧИСТЫЙ СОСТАВ ВОДКАЯ  40% 0,25Л
94N000004928QEXGHCV0BSS509180010330309FEH7YZZ068ZENXYPYEKJU1S44VSNXQ;0015545000002458847;;;;;0b4389ad-c7d9-46f4-809f-e2f1d9920b1a;;;;СКУ-1;ЧИСТЫЙ СОСТАВ ВОДКАЯ  40% 0,25Л
91N000004928QEXGHCV0BSS509180010330360FEH7YZZ068ZENXYPYEKJU1S44VSNXQ;0015545000002458847;;;;;0b4389ad-c7d9-46f4-809f-e2f1d9920b1a;;;;СКУ-1;ЧИСТЫЙ СОСТАВ ВОДКАЯ  40% 0,25Л
85N000004928QEXGHCV0BSS509180010330151FEH7YZZ068ZENXYPYEKJU1S44VSNXQ;0015545000002458847;;;;;0b4389ad-c7d9-46f4-809f-e2f1d9920b1a;;;;СКУ-1;ЧИСТЫЙ СОСТАВ ВОДКАЯ  40% 0,25Л
58N000004928QEXGHCV0BSS509180010330559FEH7YZZ068ZEWGYWYEKJU1S44VSNXQ;0015545000002458847;;;;;0b4389ad-c7d9-46f4-809f-e2f1d9920b1a;;;;СКУ-1;ЧИСТЫЙ СОСТАВ ВОДКАЯ  40% 0,25Л
25N000004928QEXGHCV0BSS509180010330826FEH7YZZ068ZEWGYWYEKJU1S44VSNXQ;0015545000002458847;;;;;0b4389ad-c7d9-46f4-809f-e2f1d9920b1a;;;;СКУ-1;ЧИСТЫЙ СОСТАВ ВОДКАЯ  40% 0,25Л
21N000004928QEXGHCV0BSS509180010330898FEH7YZZ068ZEWGYWYEKJU1S44VSNXQ;0015545000002458847;;;;;0b4389ad-c7d9-46f4-809f-e2f1d9920b1a;;;;СКУ-1;ЧИСТЫЙ СОСТАВ ВОДКАЯ  40% 0,25Л
53N000004928QEXGHCV0BSS509180010330203FEH7YZZ068ZEWGYWYEKJU1S44VSNXQ;0015545000002458847;;;;;0b4389ad-c7d9-46f4-809f-e2f1d9920b1a;;;;СКУ-1;ЧИСТЫЙ СОСТАВ ВОДКАЯ  40% 0,25Л
63N000004928QEXGHCV0BSS509180010330164FEH7YZZ068ZEWGYWYEKJU1S44VSNXQ;0015545000002458847;;;;;0b4389ad-c7d9-46f4-809f-e2f1d9920b1a;;;;СКУ-1;ЧИСТЫЙ СОСТАВ ВОДКАЯ  40% 0,25Л
39N000008MC75BA4HZK0BSS509180010330499FEH7YZZ068ZEHEJCYEKJU1S44VSNXQ;0031518000001292816;;;;;912c5718-8b35-450b-80ef-1b0afee09f1d;;;;СКУ-2;ВИСКМИКС  напиток винный вкус виски и меда  0,5л 14%
79N000008MC75BA4HZK0BSS509180010330736FEH7YZZ068ZEHEJCYEKJU1S44VSNXQ;0031518000001292816;;;;;912c5718-8b35-450b-80ef-1b0afee09f1d;;;;СКУ-2;ВИСКМИКС  напиток винный вкус виски и меда  0,5л 14%
42N000008MC75BA4HZK0BSS509180010330441FEH7YZZ068ZEHEJCYEKJU1S44VSNXQ;0031518000001292816;;;;;912c5718-8b35-450b-80ef-1b0afee09f1d;;;;СКУ-2;ВИСКМИКС  напиток винный вкус виски и меда  0,5л 14%
50N000008MC75BA4HZK0BSS509180010330324FEH7YZZ068ZEHEJCYEKJU1S44VSNXQ;0031518000001292816;;;;;912c5718-8b35-450b-80ef-1b0afee09f1d;;;;СКУ-2;ВИСКМИКС  напиток винный вкус виски и меда  0,5л 14%
44N000008MC75BA4HZK0BSS509180010330457FEH7YZZ068ZEHEJCYEKJU1S44VSNXQ;0031518000001292816;;;;;912c5718-8b35-450b-80ef-1b0afee09f1d;;;;СКУ-2;ВИСКМИКС  напиток винный вкус виски и меда  0,5л 14%
15N000008MC75BA4HZK0BSS509180010330463FEH7YZZ068ZEFHLWYEKJU1S44VSNXQ;0031518000001292816;;;;;912c5718-8b35-450b-80ef-1b0afee09f1d;;;;СКУ-2;ВИСКМИКС  напиток винный вкус виски и меда  0,5л 14%
45N000008MC75BA4HZK0BSS509180010330668FEH7YZZ068ZEFHLWYEKJU1S44VSNXQ;0031518000001292816;;;;;912c5718-8b35-450b-80ef-1b0afee09f1d;;;;СКУ-2;ВИСКМИКС  напиток винный вкус виски и меда  0,5л 14%
52N000008MC75BA4HZK0BSS509180010330756FEH7YZZ068ZEFHLWYEKJU1S44VSNXQ;0031518000001292816;;;;;912c5718-8b35-450b-80ef-1b0afee09f1d;;;;СКУ-2;ВИСКМИКС  напиток винный вкус виски и меда  0,5л 14%
25N000008MC75BA4HZK0BSS509180010330653FEH7YZZ068ZEFHLWYEKJU1S44VSNXQ;0031518000001292816;;;;;912c5718-8b35-450b-80ef-1b0afee09f1d;;;;СКУ-2;ВИСКМИКС  напиток винный вкус виски и меда  0,5л 14%
18N000008MC75BA4HZK0BSS509180010330260FEH7YZZ068ZEFHLWYEKJU1S44VSNXQ;0031518000001292816;;;;;912c5718-8b35-450b-80ef-1b0afee09f1d;;;;СКУ-2;ВИСКМИКС  напиток винный вкус виски и меда  0,5л 14%
84N000008MC75BA4HZK0BSS509180010330660FEH7YZZ068ZEFABOYEKJU1S44VSNXQ;0031518000001292816;;;;;912c5718-8b35-450b-80ef-1b0afee09f1d;;;;СКУ-2;ВИСКМИКС  напиток винный вкус виски и меда  0,5л 14%
20N000008MC75BA4HZK0BSS509180010330752FEH7YZZ068ZEFABOYEKJU1S44VSNXQ;0031518000001292816;;;;;912c5718-8b35-450b-80ef-1b0afee09f1d;;;;СКУ-2;ВИСКМИКС  напиток винный вкус виски и меда  0,5л 14%
86N000008MC75BA4HZK0BSS509180010330548FEH7YZZ068ZEFABOYEKJU1S44VSNXQ;0031518000001292816;;;;;912c5718-8b35-450b-80ef-1b0afee09f1d;;;;СКУ-2;ВИСКМИКС  напиток винный вкус виски и меда  0,5л 14%
54N000008MC75BA4HZK0BSS509180010330962FEH7YZZ068ZEFABOYEKJU1S44VSNXQ;0031518000001292816;;;;;912c5718-8b35-450b-80ef-1b0afee09f1d;;;;СКУ-2;ВИСКМИКС  напиток винный вкус виски и меда  0,5л 14%
69N000008MC75BA4HZK0BSS509180010330153FEH7YZZ068ZEFABOYEKJU1S44VSNXQ;0031518000001292816;;;;;912c5718-8b35-450b-80ef-1b0afee09f1d;;;;СКУ-2;ВИСКМИКС  напиток винный вкус виски и меда  0,5л 14%
67N000008MC75BA4HZK0BSS509180010330471FEH7YZZ068ZEMUPFYEKJU1S44VSNXQ;0031518000001292816;;;;;912c5718-8b35-450b-80ef-1b0afee09f1d;;;;СКУ-2;ВИСКМИКС  напиток винный вкус виски и меда  0,5л 14%
47N000008MC75BA4HZK0BSS509180010330820FEH7YZZ068ZEMUPFYEKJU1S44VSNXQ;0031518000001292816;;;;;912c5718-8b35-450b-80ef-1b0afee09f1d;;;;СКУ-2;ВИСКМИКС  напиток винный вкус виски и меда  0,5л 14%
73N000008MC75BA4HZK0BSS509180010330393FEH7YZZ068ZEMUPFYEKJU1S44VSNXQ;0031518000001292816;;;;;912c5718-8b35-450b-80ef-1b0afee09f1d;;;;СКУ-2;ВИСКМИКС  напиток винный вкус виски и меда  0,5л 14%
93N000008MC75BA4HZK0BSS509180010330285FEH7YZZ068ZEMUPFYEKJU1S44VSNXQ;0031518000001292816;;;;;912c5718-8b35-450b-80ef-1b0afee09f1d;;;;СКУ-2;ВИСКМИКС  напиток винный вкус виски и меда  0,5л 14%
98N000008MC75BA4HZK0BSS509180010330618FEH7YZZ068ZEMUPFYEKJU1S44VSNXQ;0031518000001292816;;;;;912c5718-8b35-450b-80ef-1b0afee09f1d;;;;СКУ-2;ВИСКМИКС  напиток винный вкус виски и меда  0,5л 14%
78N000008MC75BA4HZK0BSS509180010330713FEH7YZZ068ZERVHVYEKJU1S44VSNXQ;0031518000001292816;;;;;912c5718-8b35-450b-80ef-1b0afee09f1d;;;;СКУ-2;ВИСКМИКС  напиток винный вкус виски и меда  0,5л 14%
88N000008MC75BA4HZK0BSS509180010330515FEH7YZZ068ZERVHVYEKJU1S44VSNXQ;0031518000001292816;;;;;912c5718-8b35-450b-80ef-1b0afee09f1d;;;;СКУ-2;ВИСКМИКС  напиток винный вкус виски и меда  0,5л 14%
97N000008MC75BA4HZK0BSS509180010330244FEH7YZZ068ZERVHVYEKJU1S44VSNXQ;0031518000001292816;;;;;912c5718-8b35-450b-80ef-1b0afee09f1d;;;;СКУ-2;ВИСКМИКС  напиток винный вкус виски и меда  0,5л 14%
19N000008MC75BA4HZK0BSS509180010330594FEH7YZZ068ZERVHVYEKJU1S44VSNXQ;0031518000001292816;;;;;912c5718-8b35-450b-80ef-1b0afee09f1d;;;;СКУ-2;ВИСКМИКС  напиток винный вкус виски и меда  0,5л 14%
39N000008MC75BA4HZK0BSS509180010330471FEH7YZZ068ZERVHVYEKJU1S44VSNXQ;0031518000001292816;;;;;912c5718-8b35-450b-80ef-1b0afee09f1d;;;;СКУ-2;ВИСКМИКС  напиток винный вкус виски и меда  0,5л 14%
73N000008MC75BA4HZK0BSS509180010330890FEH7YZZ068ZEDZXNYEKJU1S44VSNXQ;0031518000001292816;;;;;912c5718-8b35-450b-80ef-1b0afee09f1d;;;;СКУ-2;ВИСКМИКС  напиток винный вкус виски и меда  0,5л 14%
10N000008MC75BA4HZK0BSS509180010330491FEH7YZZ068ZEDZXNYEKJU1S44VSNXQ;0031518000001292816;;;;;912c5718-8b35-450b-80ef-1b0afee09f1d;;;;СКУ-2;ВИСКМИКС  напиток винный вкус виски и меда  0,5л 14%
30N000008MC75BA4HZK0BSS509180010330742FEH7YZZ068ZEDZXNYEKJU1S44VSNXQ;0031518000001292816;;;;;912c5718-8b35-450b-80ef-1b0afee09f1d;;;;СКУ-2;ВИСКМИКС  напиток винный вкус виски и меда  0,5л 14%
38N000008MC75BA4HZK0BSS509180010330159FEH7YZZ068ZEDZXNYEKJU1S44VSNXQ;0031518000001292816;;;;;912c5718-8b35-450b-80ef-1b0afee09f1d;;;;СКУ-2;ВИСКМИКС  напиток винный вкус виски и меда  0,5л 14%
85N000008MC75BA4HZK0BSS509180010330886FEH7YZZ068ZEDZXNYEKJU1S44VSNXQ;0031518000001292816;;;;;912c5718-8b35-450b-80ef-1b0afee09f1d;;;;СКУ-2;ВИСКМИКС  напиток винный вкус виски и меда  0,5л 14%
87N000008MC75BA4HZK0BSS509180010330552FEH7YZZ068ZEWCECYEKJU1S44VSNXQ;0031518000001292816;;;;;912c5718-8b35-450b-80ef-1b0afee09f1d;;;;СКУ-2;ВИСКМИКС  напиток винный вкус виски и меда  0,5л 14%
61N000008MC75BA4HZK0BSS509180010330417FEH7YZZ068ZEWCECYEKJU1S44VSNXQ;0031518000001292816;;;;;912c5718-8b35-450b-80ef-1b0afee09f1d;;;;СКУ-2;ВИСКМИКС  напиток винный вкус виски и меда  0,5л 14%
75N000008MC75BA4HZK0BSS509180010330695FEH7YZZ068ZEWCECYEKJU1S44VSNXQ;0031518000001292816;;;;;912c5718-8b35-450b-80ef-1b0afee09f1d;;;;СКУ-2;ВИСКМИКС  напиток винный вкус виски и меда  0,5л 14%
96N000008MC75BA4HZK0BSS509180010330642FEH7YZZ068ZEWCECYEKJU1S44VSNXQ;0031518000001292816;;;;;912c5718-8b35-450b-80ef-1b0afee09f1d;;;;СКУ-2;ВИСКМИКС  напиток винный вкус виски и меда  0,5л 14%
91N000008MC75BA4HZK0BSS509180010330254FEH7YZZ068ZEWCECYEKJU1S44VSNXQ;0031518000001292816;;;;;912c5718-8b35-450b-80ef-1b0afee09f1d;;;;СКУ-2;ВИСКМИКС  напиток винный вкус виски и меда  0,5л 14%
80N000008MC75BA4HZK0BSS509180010330982FEH7YZZ068ZEGMBAYEKJU1S44VSNXQ;0031518000001292816;;;;;912c5718-8b35-450b-80ef-1b0afee09f1d;;;;СКУ-2;ВИСКМИКС  напиток винный вкус виски и меда  0,5л 14%
65N000008MC75BA4HZK0BSS509180010330578FEH7YZZ068ZEGMBAYEKJU1S44VSNXQ;0031518000001292816;;;;;912c5718-8b35-450b-80ef-1b0afee09f1d;;;;СКУ-2;ВИСКМИКС  напиток винный вкус виски и меда  0,5л 14%
75N000008MC75BA4HZK0BSS509180010330696FEH7YZZ068ZEGMBAYEKJU1S44VSNXQ;0031518000001292816;;;;;912c5718-8b35-450b-80ef-1b0afee09f1d;;;;СКУ-2;ВИСКМИКС  напиток винный вкус виски и меда  0,5л 14%
45N000008MC75BA4HZK0BSS509180010330250FEH7YZZ068ZEGMBAYEKJU1S44VSNXQ;0031518000001292816;;;;;912c5718-8b35-450b-80ef-1b0afee09f1d;;;;СКУ-2;ВИСКМИКС  напиток винный вкус виски и меда  0,5л 14%
75N000008MC75BA4HZK0BSS509180010330736FEH7YZZ068ZEGMBAYEKJU1S44VSNXQ;0031518000001292816;;;;;912c5718-8b35-450b-80ef-1b0afee09f1d;;;;СКУ-2;ВИСКМИКС  напиток винный вкус виски и меда  0,5л 14%
44N000008MC75BA4HZK0BSS509180010330957FEH7YZZ068ZEQHPWYEKJU1S44VSNXQ;0031518000001292816;;;;;912c5718-8b35-450b-80ef-1b0afee09f1d;;;;СКУ-2;ВИСКМИКС  напиток винный вкус виски и меда  0,5л 14%
66N000008MC75BA4HZK0BSS509180010330342FEH7YZZ068ZEQHPWYEKJU1S44VSNXQ;0031518000001292816;;;;;912c5718-8b35-450b-80ef-1b0afee09f1d;;;;СКУ-2;ВИСКМИКС  напиток винный вкус виски и меда  0,5л 14%
40N000008MC75BA4HZK0BSS509180010330797FEH7YZZ068ZEQHPWYEKJU1S44VSNXQ;0031518000001292816;;;;;912c5718-8b35-450b-80ef-1b0afee09f1d;;;;СКУ-2;ВИСКМИКС  напиток винный вкус виски и меда  0,5л 14%
45N000008MC75BA4HZK0BSS509180010330996FEH7YZZ068ZEQHPWYEKJU1S44VSNXQ;0031518000001292816;;;;;912c5718-8b35-450b-80ef-1b0afee09f1d;;;;СКУ-2;ВИСКМИКС  напиток винный вкус виски и меда  0,5л 14%
61N000008MC75BA4HZK0BSS509180010330111FEH7YZZ068ZEQHPWYEKJU1S44VSNXQ;0031518000001292816;;;;;912c5718-8b35-450b-80ef-1b0afee09f1d;;;;СКУ-2;ВИСКМИКС  напиток винный вкус виски и меда  0,5л 14%
98N000008MC75BA4HZK0BSS509180010330895FEH7YZZ068ZEDLHUYEKJU1S44VSNXQ;0031518000001292816;;;;;912c5718-8b35-450b-80ef-1b0afee09f1d;;;;СКУ-2;ВИСКМИКС  напиток винный вкус виски и меда  0,5л 14%
40N000008MC75BA4HZK0BSS509180010330214FEH7YZZ068ZEDLHUYEKJU1S44VSNXQ;0031518000001292816;;;;;912c5718-8b35-450b-80ef-1b0afee09f1d;;;;СКУ-2;ВИСКМИКС  напиток винный вкус виски и меда  0,5л 14%
72N000008MC75BA4HZK0BSS509180010330349FEH7YZZ068ZEDLHUYEKJU1S44VSNXQ;0031518000001292816;;;;;912c5718-8b35-450b-80ef-1b0afee09f1d;;;;СКУ-2;ВИСКМИКС  напиток винный вкус виски и меда  0,5л 14%
19N000008MC75BA4HZK0BSS509180010330591FEH7YZZ068ZEDLHUYEKJU1S44VSNXQ;0031518000001292816;;;;;912c5718-8b35-450b-80ef-1b0afee09f1d;;;;СКУ-2;ВИСКМИКС  напиток винный вкус виски и меда  0,5л 14%
73N000008MC75BA4HZK0BSS509180010330397FEH7YZZ068ZEDLHUYEKJU1S44VSNXQ;0031518000001292816;;;;;912c5718-8b35-450b-80ef-1b0afee09f1d;;;;СКУ-2;ВИСКМИКС  напиток винный вкус виски и меда  0,5л 14%